<?xml version='1.0' encoding='utf-8'?>
<graphml xmlns="http://graphml.graphdrawing.org/xmlns" xmlns:xsi="http://www.w3.org/2001/XMLSchema-instance" xsi:schemaLocation="http://graphml.graphdrawing.org/xmlns http://graphml.graphdrawing.org/xmlns/1.0/graphml.xsd"><key attr.name="name" attr.type="string" for="node" id="d2"/>
<key attr.name="longitude" attr.type="double" for="node" id="d1"/>
<key attr.name="latitude" attr.type="double" for="node" id="d0"/>
<graph edgedefault="undirected"><node id="LEMD"/>
<node id="SAEZ"/>
<node id="SUMU"/>
<node id="SGAS"/>
<node id="SLVR"/>
<node id="SBGR">
  <data key="d0">-23.435556</data>
  <data key="d1">-46.473056</data>
  <data key="d2">Guarulhos - Governador André Franco Montoro</data>
</node>
<node id="SBEG">
  <data key="d0">-3.0411111</data>
  <data key="d1">-60.050556</data>
  <data key="d2">Eduardo Gomes</data>
</node>
<node id="SBBR">
  <data key="d0">-15.871111</data>
  <data key="d1">-47.918611</data>
  <data key="d2">Presidente Juscelino Kubitschek</data>
</node>
<node id="SBKP">
  <data key="d0">-23.006944</data>
  <data key="d1">-47.134444</data>
  <data key="d2">Viracopos</data>
</node>
<node id="SBRF">
  <data key="d0">-8.1263889</data>
  <data key="d1">-34.922778</data>
  <data key="d2">Guararapes - Gilberto Freyre Internacional</data>
</node>
<node id="SBGL">
  <data key="d0">-22.81</data>
  <data key="d1">-43.250556</data>
  <data key="d2">Galeão - Antônio Carlos Jobim</data>
</node>
<node id="SPJC"/>
<node id="SBCF">
  <data key="d0">-19.624444</data>
  <data key="d1">-43.971944</data>
  <data key="d2">Tancredo Neves</data>
</node>
<node id="SCEL"/>
<node id="HAAB"/>
<node id="GOBD"/>
<node id="SBMO">
  <data key="d0">-9.5172222</data>
  <data key="d1">-35.783611</data>
  <data key="d2">Zumbi dos Palmares</data>
</node>
<node id="OMAA"/>
<node id="VOHS"/>
<node id="GMMN"/>
<node id="VHHH"/>
<node id="EBLG"/>
<node id="EBBR"/>
<node id="DNMM"/>
<node id="SKBO"/>
<node id="KMIA"/>
<node id="KPVG"/>
<node id="DGAA"/>
<node id="SBVT">
  <data key="d0">-20.258056</data>
  <data key="d1">-40.286389</data>
  <data key="d2">Eurico de Aguiar Salles</data>
</node>
<node id="SBBE">
  <data key="d0">-1.3847222</data>
  <data key="d1">-48.478889</data>
  <data key="d2">Aeroporto Internacional de Bélem</data>
</node>
<node id="SBMD">
  <data key="d0">-0.8897222</data>
  <data key="d1">-52.602222</data>
  <data key="d2">Monte Dourado</data>
</node>
<node id="SNVS">
  <data key="d0">-1.6363889</data>
  <data key="d1">-50.443333</data>
  <data key="d2">Breves</data>
</node>
<node id="SWTS">
  <data key="d0">-14.661944</data>
  <data key="d1">-57.443889</data>
  <data key="d2">Tangará da Serra</data>
</node>
<node id="SBCY">
  <data key="d0">-15.65</data>
  <data key="d1">-56.1175</data>
  <data key="d2">Marechal Rondon</data>
</node>
<node id="SBBW">
  <data key="d0">-15.860833</data>
  <data key="d1">-52.389444</data>
  <data key="d2">Barra do Garças</data>
</node>
<node id="SNRU">
  <data key="d0">-8.2844444</data>
  <data key="d1">-36.010833</data>
  <data key="d2">Caruaru</data>
</node>
<node id="SNHS">
  <data key="d0">-8.0613889</data>
  <data key="d1">-38.328611</data>
  <data key="d2">Santa Magalhães</data>
</node>
<node id="SWHP">
  <data key="d0">-14.019444</data>
  <data key="d1">-52.152222</data>
  <data key="d2">Olhos D'Água</data>
</node>
<node id="SWFX">
  <data key="d0">-11.631944</data>
  <data key="d1">-50.688333</data>
  <data key="d2">São Félix do Araguaia</data>
</node>
<node id="SJHG"/>
<node id="SBSN">
  <data key="d0">-2.4247222</data>
  <data key="d1">-54.785833</data>
  <data key="d2">Maestro Wilson Fonseca</data>
</node>
<node id="SNYA">
  <data key="d0">-1.4791667</data>
  <data key="d1">-52.578056</data>
  <data key="d2">Aeródromo Público de Almeirim</data>
</node>
<node id="SWJN">
  <data key="d0">-11.419444</data>
  <data key="d1">-58.71</data>
  <data key="d2">Juína</data>
</node>
<node id="SSOU"/>
<node id="SBJD">
  <data key="d0">-23.181667</data>
  <data key="d1">-46.943611</data>
  <data key="d2">Comandante Rolim Adolfo Amaro</data>
</node>
<node id="SBIL">
  <data key="d0">-14.815</data>
  <data key="d1">-39.033333</data>
  <data key="d2">Bahia - Jorge Amado</data>
</node>
<node id="SBCT">
  <data key="d0">-25.531667</data>
  <data key="d1">-49.176111</data>
  <data key="d2">Aeroporto Internacional Afonso Pena</data>
</node>
<node id="SKRG"/>
<node id="SACO"/>
<node id="MPTO"/>
<node id="SBPA">
  <data key="d0">-29.994722</data>
  <data key="d1">-51.171111</data>
  <data key="d2">Salgado Filho</data>
</node>
<node id="LSZH"/>
<node id="SBFL">
  <data key="d0">-27.670278</data>
  <data key="d1">-48.5525</data>
  <data key="d2">Hercílio Luz</data>
</node>
<node id="SBGO">
  <data key="d0">-16.6325</data>
  <data key="d1">-49.221111</data>
  <data key="d2">Santa Genoveva</data>
</node>
<node id="SBBV"/>
<node id="SBCX">
  <data key="d0">-29.195556</data>
  <data key="d1">-51.189722</data>
  <data key="d2">Hugo Cantergiani</data>
</node>
<node id="SBCG">
  <data key="d0">-20.469444</data>
  <data key="d1">-54.670278</data>
  <data key="d2">Campo Grande Internacional</data>
</node>
<node id="SBSV">
  <data key="d0">-12.908611</data>
  <data key="d1">-38.3225</data>
  <data key="d2">Deputado Luis Eduardo Magalhães-Intl</data>
</node>
<node id="SBFZ">
  <data key="d0">-3.7758333</data>
  <data key="d1">-38.532222</data>
  <data key="d2">Pinto Martins</data>
</node>
<node id="SDSC">
  <data key="d0">-21.876389</data>
  <data key="d1">-47.903333</data>
  <data key="d2">Mário Pereira Lopes</data>
</node>
<node id="EHAM"/>
<node id="SEQM"/>
<node id="SBSP">
  <data key="d0">-23.626111</data>
  <data key="d1">-46.656389</data>
  <data key="d2">Congonhas</data>
</node>
<node id="SBRJ">
  <data key="d0">-22.91</data>
  <data key="d1">-43.1625</data>
  <data key="d2">Santos Dumont</data>
</node>
<node id="SBNF">
  <data key="d0">-26.878611</data>
  <data key="d1">-48.650833</data>
  <data key="d2">Navegantes / Ministro Victor Konder - Internacional</data>
</node>
<node id="SBMG">
  <data key="d0">-23.479444</data>
  <data key="d1">-52.012222</data>
  <data key="d2">Silvio Name Júnior</data>
</node>
<node id="SBFI">
  <data key="d0">-25.600278</data>
  <data key="d1">-54.485</data>
  <data key="d2">Cataratas</data>
</node>
<node id="SBCA">
  <data key="d0">-25.002222</data>
  <data key="d1">-53.501944</data>
  <data key="d2">Coronel Adalberto Mendes da Silva</data>
</node>
<node id="SBLO">
  <data key="d0">-23.330278</data>
  <data key="d1">-51.136667</data>
  <data key="d2">Governador José Richa</data>
</node>
<node id="SBCH">
  <data key="d0">-27.133889</data>
  <data key="d1">-52.661944</data>
  <data key="d2">Serafin Enoss Bertaso</data>
</node>
<node id="SLLP"/>
<node id="MMMX"/>
<node id="MTPP"/>
<node id="KJFK"/>
<node id="KDFW"/>
<node id="KMEM"/>
<node id="TJBQ"/>
<node id="ELLX"/>
<node id="LPPT"/>
<node id="LPPR"/>
<node id="SBCB">
  <data key="d0">-22.920833</data>
  <data key="d1">-42.071389</data>
  <data key="d2">Cabo Frio</data>
</node>
<node id="SBPJ">
  <data key="d0">-10.29</data>
  <data key="d1">-48.357778</data>
  <data key="d2">Palmas / Brigadeiro Lysias Rodrigues</data>
</node>
<node id="SBPL">
  <data key="d0">-9.3675</data>
  <data key="d1">-40.563611</data>
  <data key="d2">Senador Nilo Coelho</data>
</node>
<node id="SBSJ">
  <data key="d0">-23.228889</data>
  <data key="d1">-45.871111</data>
  <data key="d2">Professor Urbano Erenesto Stumpf</data>
</node>
<node id="SBVC">
  <data key="d0">-14.907778</data>
  <data key="d1">-40.914722</data>
  <data key="d2">Glauber de Andrade Rocha</data>
</node>
<node id="SBMK">
  <data key="d0">-16.706111</data>
  <data key="d1">-43.821944</data>
  <data key="d2">Aeródromo Público Mário Ribeiro</data>
</node>
<node id="SBPV">
  <data key="d0">-8.7136111</data>
  <data key="d1">-63.902778</data>
  <data key="d2">Governador Jorge Teixeira de Oliveira</data>
</node>
<node id="SBMQ">
  <data key="d0">0.0508333</data>
  <data key="d1">-51.070278</data>
  <data key="d2">Alberto Alcolumbre Internacional</data>
</node>
<node id="SBCN">
  <data key="d0">-17.724722</data>
  <data key="d1">-48.61</data>
  <data key="d2">Nelson Rodrigues Guimarães</data>
</node>
<node id="SBUL">
  <data key="d0">-18.883611</data>
  <data key="d1">-48.225278</data>
  <data key="d2">Ten. Cel. Aviador César Bombonato</data>
</node>
<node id="SBSI">
  <data key="d0">-11.885</data>
  <data key="d1">-55.586111</data>
  <data key="d2">Presidente João Batista Figueiredo</data>
</node>
<node id="SBAR">
  <data key="d0">-10.985278</data>
  <data key="d1">-37.073333</data>
  <data key="d2">Santa Maria</data>
</node>
<node id="SBSG">
  <data key="d0">-5.7688889</data>
  <data key="d1">-35.366389</data>
  <data key="d2">Aeroporto Internacional do Rio Grande do Norte - Governador Aluizio Alves</data>
</node>
<node id="SBSL">
  <data key="d0">-2.5869444</data>
  <data key="d1">-44.236111</data>
  <data key="d2">Marechal Cunha Machado Internacional</data>
</node>
<node id="SBJE">
  <data key="d0">-2.9066667</data>
  <data key="d1">-40.358056</data>
  <data key="d2">Comandante Ariston Pessoa</data>
</node>
<node id="SBJP">
  <data key="d0">-7.1483333</data>
  <data key="d1">-34.950278</data>
  <data key="d2">Internacional Presidente Castro Pinto</data>
</node>
<node id="SBTE">
  <data key="d0">-5.0605556</data>
  <data key="d1">-42.824444</data>
  <data key="d2">Aeroporto de Teresina / Senador Petrônio Portella</data>
</node>
<node id="SBPS">
  <data key="d0">-16.438056</data>
  <data key="d1">-39.077778</data>
  <data key="d2">Porto Seguro</data>
</node>
<node id="SBKG">
  <data key="d0">-7.2691667</data>
  <data key="d1">-35.895</data>
  <data key="d2">Presidente João Suassuna</data>
</node>
<node id="SBJU">
  <data key="d0">-7.2191667</data>
  <data key="d1">-39.269444</data>
  <data key="d2">Orlando Bezerra Menezes</data>
</node>
<node id="SBMA">
  <data key="d0">-5.3680556</data>
  <data key="d1">-49.138056</data>
  <data key="d2">João Corrêa da Rocha</data>
</node>
<node id="SBFN">
  <data key="d0">-3.8547222</data>
  <data key="d1">-32.428333</data>
  <data key="d2">Fernando de Noronha</data>
</node>
<node id="SBCJ">
  <data key="d0">-6.1152778</data>
  <data key="d1">-50.001389</data>
  <data key="d2">Carajás</data>
</node>
<node id="SBRB">
  <data key="d0">-9.8683333</data>
  <data key="d1">-67.898056</data>
  <data key="d2">Plácido de Castro</data>
</node>
<node id="SBCZ">
  <data key="d0">-7.5994444</data>
  <data key="d1">-72.769444</data>
  <data key="d2">Cruzeiro do Sul / Cruzeiro do Sul - Internacional</data>
</node>
<node id="KATL"/>
<node id="OMDB"/>
<node id="OTHH"/>
<node id="EHBK"/>
<node id="DNKN"/>
<node id="TJSJ"/>
<node id="SBRP">
  <data key="d0">-21.136389</data>
  <data key="d1">-47.776667</data>
  <data key="d2">Leite Lopes</data>
</node>
<node id="SBSR">
  <data key="d0">-20.816111</data>
  <data key="d1">-49.404722</data>
  <data key="d2">Professor Eriberto Manoel Reino</data>
</node>
<node id="SBAE">
  <data key="d0">-22.157778</data>
  <data key="d1">-49.068333</data>
  <data key="d2">Aeroporto Estadual de Bauru-Arealva</data>
</node>
<node id="SBDN">
  <data key="d0">-22.178333</data>
  <data key="d1">-51.418889</data>
  <data key="d2">Presidente Prudente</data>
</node>
<node id="SBTC">
  <data key="d0">-15.353333</data>
  <data key="d1">-38.997222</data>
  <data key="d2">Hotel Transamérica</data>
</node>
<node id="SBDB">
  <data key="d0">-21.247222</data>
  <data key="d1">-56.4525</data>
  <data key="d2">Aeródromo Público de Bonito</data>
</node>
<node id="SBCR">
  <data key="d0">-19.011944</data>
  <data key="d1">-57.671389</data>
  <data key="d2">Corumbá Internacional</data>
</node>
<node id="SBJV">
  <data key="d0">-26.223056</data>
  <data key="d1">-48.797778</data>
  <data key="d2">Lauro Carneiro de Loyola</data>
</node>
<node id="SBGV">
  <data key="d0">-18.896944</data>
  <data key="d1">-41.986111</data>
  <data key="d2">Coronel Altino Machado</data>
</node>
<node id="SBUR">
  <data key="d0">-19.764722</data>
  <data key="d1">-47.966111</data>
  <data key="d2">Mario de Almeida Franco</data>
</node>
<node id="SBTF">
  <data key="d0">-3.3802778</data>
  <data key="d1">-64.725278</data>
  <data key="d2">Tefé</data>
</node>
<node id="SBTT">
  <data key="d0">-4.2505556</data>
  <data key="d1">-69.937778</data>
  <data key="d2">Tabatinga</data>
</node>
<node id="SBHT">
  <data key="d0">-3.2508333</data>
  <data key="d1">-52.252222</data>
  <data key="d2">Altamira</data>
</node>
<node id="SBIZ">
  <data key="d0">-5.5305556</data>
  <data key="d1">-47.458333</data>
  <data key="d2">Prefeito Renato Moreira</data>
</node>
<node id="SNBR">
  <data key="d0">-12.079167</data>
  <data key="d1">-45.009444</data>
  <data key="d2">Barreiras</data>
</node>
<node id="SBZM">
  <data key="d0">-21.513056</data>
  <data key="d1">-43.173056</data>
  <data key="d2">Presidente Itamar Franco</data>
</node>
<node id="SWLC">
  <data key="d0">-17.834722</data>
  <data key="d1">-50.956111</data>
  <data key="d2">General Leite de Castro</data>
</node>
<node id="SBML">
  <data key="d0">-22.195556</data>
  <data key="d1">-49.926944</data>
  <data key="d2">Frank Miloye Milenkovich</data>
</node>
<node id="SBTG">
  <data key="d0">-20.751389</data>
  <data key="d1">-51.680278</data>
  <data key="d2">Três Lagoas</data>
</node>
<node id="SBPB">
  <data key="d0">-2.8938889</data>
  <data key="d1">-41.730278</data>
  <data key="d2">Aeroporto Internacional de Parnaíba / Prefeito Doutor João Silva Filho</data>
</node>
<node id="SBRD">
  <data key="d0">-16.588056</data>
  <data key="d1">-54.721667</data>
  <data key="d2">Rondonópolis</data>
</node>
<node id="SBAU">
  <data key="d0">-21.144167</data>
  <data key="d1">-50.426389</data>
  <data key="d2">Estadual Dario Guarita</data>
</node>
<node id="SBPK">
  <data key="d0">-31.716111</data>
  <data key="d1">-52.331111</data>
  <data key="d2">João Simões Lopes Neto</data>
</node>
<node id="SNTF">
  <data key="d0">-17.524444</data>
  <data key="d1">-39.668333</data>
  <data key="d2">Teixeira de Freitas</data>
</node>
<node id="SBAT">
  <data key="d0">-9.8663889</data>
  <data key="d1">-56.105</data>
  <data key="d2">Aeroporto Piloto Osvaldo Marques Dias</data>
</node>
<node id="SBCP">
  <data key="d0">-21.701111</data>
  <data key="d1">-41.307778</data>
  <data key="d2">Bartolomeu Lisandro</data>
</node>
<node id="SBME">
  <data key="d0">-22.342778</data>
  <data key="d1">-41.763889</data>
  <data key="d2">Macaé</data>
</node>
<node id="SBMS">
  <data key="d0">-5.1958333</data>
  <data key="d1">-37.361667</data>
  <data key="d2">Aeroporto Dix-Sept Rosado</data>
</node>
<node id="SBSM">
  <data key="d0">-29.710833</data>
  <data key="d1">-53.692222</data>
  <data key="d2">Santa Maria</data>
</node>
<node id="SBNM">
  <data key="d0">-28.281667</data>
  <data key="d1">-54.168333</data>
  <data key="d2">Santo Ângelo</data>
</node>
<node id="SBUG">
  <data key="d0">-29.783333</data>
  <data key="d1">-57.036944</data>
  <data key="d2">Rubem Berta</data>
</node>
<node id="SBJA">
  <data key="d0">-28.675278</data>
  <data key="d1">-49.060278</data>
  <data key="d2">Regional Sul</data>
</node>
<node id="SBVH">
  <data key="d0">-12.694167</data>
  <data key="d1">-60.097222</data>
  <data key="d2">Vilhena</data>
</node>
<node id="KFLL"/>
<node id="SMJP"/>
<node id="SEGU"/>
<node id="MGGT"/>
<node id="SBIH">
  <data key="d0">-4.2422222</data>
  <data key="d1">-56.000833</data>
  <data key="d2">Itaituba</data>
</node>
<node id="SBUA">
  <data key="d0">-0.1480556</data>
  <data key="d1">-66.985833</data>
  <data key="d2">São Gabriel da Cachoeira</data>
</node>
<node id="SWCA">
  <data key="d0">-4.8713889</data>
  <data key="d1">-66.8975</data>
  <data key="d2">Carauari</data>
</node>
<node id="SWEI">
  <data key="d0">-6.6375</data>
  <data key="d1">-69.883056</data>
  <data key="d2">Eirunepé</data>
</node>
<node id="SWKO">
  <data key="d0">-4.1338889</data>
  <data key="d1">-63.131111</data>
  <data key="d2">Coari</data>
</node>
<node id="SWLB">
  <data key="d0">-7.2788889</data>
  <data key="d1">-64.769444</data>
  <data key="d2">Lábrea</data>
</node>
<node id="SWPI">
  <data key="d0">-2.6694444</data>
  <data key="d1">-56.771111</data>
  <data key="d2">Parintins</data>
</node>
<node id="KPUC"/>
<node id="SBUY"/>
<node id="SBTB">
  <data key="d0">-1.4897222</data>
  <data key="d1">-56.396944</data>
  <data key="d2">Trombetas</data>
</node>
<node id="SGES"/>
<node id="FNLU"/>
<node id="MUHA"/>
<node id="LEBL"/>
<node id="KIAH"/>
<node id="KEWR"/>
<node id="FAOR"/>
<node id="KORD"/>
<node id="LFPG"/>
<node id="SABE"/>
<node id="UUEE"/>
<node id="LIRF"/>
<node id="SANU"/>
<node id="EDDF"/>
<node id="PANC"/>
<node id="RKSI"/>
<node id="KLAX"/>
<node id="GVAC"/>
<node id="LIMC"/>
<node id="MMUN"/>
<node id="KVCV"/>
<node id="ZBAA"/>
<node id="SWGN">
  <data key="d0">-7.2283333</data>
  <data key="d1">-48.240833</data>
  <data key="d2">Araguaína</data>
</node>
<node id="CYYZ"/>
<node id="LTFM"/>
<node id="LTBA"/>
<node id="SLCB"/>
<node id="EGLL"/>
<node id="SVMI"/>
<node id="KBOS"/>
<node id="TFFF"/>
<node id="SYCJ"/>
<node id="KAEX"/>
<node id="SCFA"/>
<node id="SKCL"/>
<node id="VMMC"/>
<node id="VCBI"/>
<node id="OEJN"/>
<node id="GUCY"/>
<node id="UCFM"/>
<node id="SNGA">
  <data key="d0">-20.646389</data>
  <data key="d1">-40.491667</data>
  <data key="d2">Guarapari</data>
</node>
<node id="SBPC">
  <data key="d0">-21.837778</data>
  <data key="d1">-46.566111</data>
  <data key="d2">Embaixador Walther Moreira Salles</data>
</node>
<node id="SSCD">
  <data key="d0">-18.839167</data>
  <data key="d1">-52.488056</data>
  <data key="d2">Chapadão do Sul</data>
</node>
<node id="SSNG">
  <data key="d0">-29.719722</data>
  <data key="d1">-51.488889</data>
  <data key="d2">Montenegro</data>
</node>
<node id="SNMR">
  <data key="d0">-14.117222</data>
  <data key="d1">-38.983889</data>
  <data key="d2">Maraú</data>
</node>
<node id="SWBR">
  <data key="d0">-4.4086111</data>
  <data key="d1">-59.597778</data>
  <data key="d2">Borba</data>
</node>
<node id="SIMK">
  <data key="d0">-20.590278</data>
  <data key="d1">-47.3825</data>
  <data key="d2">Tenente Lund Pressoto</data>
</node>
<node id="SNWC">
  <data key="d0">-2.8958333</data>
  <data key="d1">-40.858889</data>
  <data key="d2">Camocim</data>
</node>
<node id="SSKM">
  <data key="d0">-24.0025</data>
  <data key="d1">-52.356944</data>
  <data key="d2">Campo Mourão</data>
</node>
<node id="SWNS">
  <data key="d0">-16.3625</data>
  <data key="d1">-48.928056</data>
  <data key="d2">Anápolis</data>
</node>
<node id="SNGX">
  <data key="d0">-21.326667</data>
  <data key="d1">-46.730278</data>
  <data key="d2">Guaxupé</data>
</node>
<node id="SNIC">
  <data key="d0">-11.34</data>
  <data key="d1">-41.846944</data>
  <data key="d2">Irecê</data>
</node>
<node id="SNKI">
  <data key="d0">-20.835278</data>
  <data key="d1">-41.186389</data>
  <data key="d2">Aeródromo de Cachoeiro do Itapemirim</data>
</node>
<node id="SBPP">
  <data key="d0">-22.549722</data>
  <data key="d1">-55.703056</data>
  <data key="d2">Ponta Porã - Internacional</data>
</node>
<node id="SNTS">
  <data key="d0">-7.0377778</data>
  <data key="d1">-37.2575</data>
  <data key="d2">Patos</data>
</node>
<node id="SBBG">
  <data key="d0">-31.390833</data>
  <data key="d1">-54.109722</data>
  <data key="d2">Comandante Gustavo Kraemer</data>
</node>
<node id="SSCN">
  <data key="d0">-29.370556</data>
  <data key="d1">-50.832222</data>
  <data key="d2">Canela</data>
</node>
<node id="SSIM">
  <data key="d0">-28.724444</data>
  <data key="d1">-49.421111</data>
  <data key="d2">Forquilhinha-Criciúma</data>
</node>
<node id="SDDN">
  <data key="d0">-20.8925</data>
  <data key="d1">-51.383889</data>
  <data key="d2">Paulino Ribeiro de Andrade</data>
</node>
<node id="SDPW">
  <data key="d0">-22.710556</data>
  <data key="d1">-47.619444</data>
  <data key="d2">Pedro Morganti</data>
</node>
<node id="SSKU">
  <data key="d0">-27.287222</data>
  <data key="d1">-50.603889</data>
  <data key="d2">Lauro Antônio da Costa</data>
</node>
<node id="SSAP">
  <data key="d0">-23.612222</data>
  <data key="d1">-51.385</data>
  <data key="d2">Capitão João Busse</data>
</node>
<node id="SNAL">
  <data key="d0">-9.7763889</data>
  <data key="d1">-36.630556</data>
  <data key="d2">Arapiraca</data>
</node>
<node id="SWPZ">
  <data key="d0">-14.118056</data>
  <data key="d1">-46.345278</data>
  <data key="d2">Ouriçanga de Abreu</data>
</node>
<node id="SBJH">
  <data key="d0">-23.426944</data>
  <data key="d1">-47.165833</data>
  <data key="d2">São Paulo Catarina Aeroporto Executivo</data>
</node>
<node id="SBSO">
  <data key="d0">-12.472778</data>
  <data key="d1">-55.668889</data>
  <data key="d2">Regional de Sorriso Adolino Bedin</data>
</node>
<node id="SBAC">
  <data key="d0">-4.5686111</data>
  <data key="d1">-37.804722</data>
  <data key="d2">Aeroporto Regional de Acarati</data>
</node>
<node id="SBTD">
  <data key="d0">-24.685278</data>
  <data key="d1">-53.696389</data>
  <data key="d2">Luiz Dalcanale Filho</data>
</node>
<node id="SWPM">
  <data key="d0">-11.641667</data>
  <data key="d1">-61.181111</data>
  <data key="d2">Pimenta Bueno</data>
</node>
<node id="SNAX">
  <data key="d0">-22.64</data>
  <data key="d1">-50.453056</data>
  <data key="d2">Marcelo Pires Halzhausen</data>
</node>
<node id="SBBU">
  <data key="d0">-22.343611</data>
  <data key="d1">-49.053889</data>
  <data key="d2">Bauru</data>
</node>
<node id="SDDR">
  <data key="d0">-21.460556</data>
  <data key="d1">-51.606944</data>
  <data key="d2">Dracena</data>
</node>
<node id="SNFU">
  <data key="d0">-20.004722</data>
  <data key="d1">-48.958889</data>
  <data key="d2">Frutal</data>
</node>
<node id="SBAX">
  <data key="d0">-19.560556</data>
  <data key="d1">-46.965556</data>
  <data key="d2">Romeu Zema</data>
</node>
<node id="SNOS">
  <data key="d0">-20.733333</data>
  <data key="d1">-46.659722</data>
  <data key="d2">José Figueiredo</data>
</node>
<node id="SNGN">
  <data key="d0">-8.8344444</data>
  <data key="d1">-36.471389</data>
  <data key="d2">Garanhuns</data>
</node>
<node id="SNAE">
  <data key="d0">-8.4077778</data>
  <data key="d1">-37.088333</data>
  <data key="d2">Arcoverde</data>
</node>
<node id="SDPN">
  <data key="d0">-21.410278</data>
  <data key="d1">-50.031944</data>
  <data key="d2">Aeroporto Estadual Dr. Ramalho Franco</data>
</node>
<node id="SDJV">
  <data key="d0">-22.016667</data>
  <data key="d1">-46.840556</data>
  <data key="d2">Municipal de São João da Boa Vista</data>
</node>
<node id="SDNO">
  <data key="d0">-22.696111</data>
  <data key="d1">-48.576111</data>
  <data key="d2">Nelson Garófalo</data>
</node>
<node id="SJRG">
  <data key="d0">-32.083333</data>
  <data key="d1">-52.1675</data>
  <data key="d2">Regional de Rio Grande</data>
</node>
<node id="SNXB">
  <data key="d0">-21.9175</data>
  <data key="d1">-44.969444</data>
  <data key="d2">Caxambu</data>
</node>
<node id="SBPG">
  <data key="d0">-25.184444</data>
  <data key="d1">-50.143889</data>
  <data key="d2">Comandante Antônio Amilton Beraldo</data>
</node>
<node id="SBUF">
  <data key="d0">-9.4011111</data>
  <data key="d1">-38.251111</data>
  <data key="d2">Paulo Afonso</data>
</node>
<node id="SDIY">
  <data key="d0">-12.200556</data>
  <data key="d1">-38.906389</data>
  <data key="d2">João Durval Carneiro</data>
</node>
<node id="SNMX">
  <data key="d0">-18.721389</data>
  <data key="d1">-39.833611</data>
  <data key="d2">Aeródromo Público de São Mateus</data>
</node>
<node id="SNCX">
  <data key="d0">-19.484444</data>
  <data key="d1">-40.584444</data>
  <data key="d2">Colatina</data>
</node>
<node id="SBMT">
  <data key="d0">-23.506667</data>
  <data key="d1">-46.633889</data>
  <data key="d2">Campo de Marte</data>
</node>
<node id="SBAQ">
  <data key="d0">-21.804444</data>
  <data key="d1">-48.140278</data>
  <data key="d2">Bartolomeu de Gusmão</data>
</node>
<node id="SWXQ">
  <data key="d0">-21.662778</data>
  <data key="d1">-49.731111</data>
  <data key="d2">Lins</data>
</node>
<node id="SNCP">
  <data key="d0">-27.634167</data>
  <data key="d1">-50.358333</data>
  <data key="d2">Aeroporto Regional do Planalto Serrano</data>
</node>
<node id="SSOE">
  <data key="d0">-26.781111</data>
  <data key="d1">-53.503333</data>
  <data key="d2">Hélio Wasum</data>
</node>
<node id="SDZG">
  <data key="d0">-5.9333333</data>
  <data key="d1">-40.2975</data>
  <data key="d2">Pedro Teixeira Castelo Regional Tauá</data>
</node>
<node id="SDIM">
  <data key="d0">-24.164722</data>
  <data key="d1">-46.785556</data>
  <data key="d2">Dr. Antonio Ribeiro Nogueira Júnior</data>
</node>
<node id="SBBH">
  <data key="d0">-19.851944</data>
  <data key="d1">-43.950556</data>
  <data key="d2">Pampulha - Carlos Drummond de Andrade</data>
</node>
<node id="SNDV">
  <data key="d0">-20.181944</data>
  <data key="d1">-44.87</data>
  <data key="d2">Brigadeiro Antônio Cabral</data>
</node>
<node id="SBVG">
  <data key="d0">-21.588889</data>
  <data key="d1">-45.473333</data>
  <data key="d2">Major Brigadeiro Trompowsky</data>
</node>
<node id="SSFB">
  <data key="d0">-26.058889</data>
  <data key="d1">-53.063333</data>
  <data key="d2">Paulo Abdala</data>
</node>
<node id="SNKR">
  <data key="d0">-10.451944</data>
  <data key="d1">-45.136389</data>
  <data key="d2">Corrente</data>
</node>
<node id="SDOU">
  <data key="d0">-22.973611</data>
  <data key="d1">-49.911389</data>
  <data key="d2">Jornalista Benedito Pimentel</data>
</node>
<node id="SBBP">
  <data key="d0">-22.979167</data>
  <data key="d1">-46.5375</data>
  <data key="d2">Estadual Arthur Siqueira</data>
</node>
<node id="SDAI">
  <data key="d0">-22.755278</data>
  <data key="d1">-47.268056</data>
  <data key="d2">Americana</data>
</node>
<node id="SDPE">
  <data key="d0">-10.716944</data>
  <data key="d1">-48.400278</data>
  <data key="d2">Porto Nacional</data>
</node>
<node id="SNPY">
  <data key="d0">-20.948333</data>
  <data key="d1">-46.983056</data>
  <data key="d2">São Sebastião do Paraíso</data>
</node>
<node id="SNOB">
  <data key="d0">-3.6788889</data>
  <data key="d1">-40.336667</data>
  <data key="d2">Aeródromo Público de Sobral</data>
</node>
<node id="SSZR">
  <data key="d0">-27.908889</data>
  <data key="d1">-54.522222</data>
  <data key="d2">Luis Alberto Lehr</data>
</node>
<node id="SBJF">
  <data key="d0">-21.793056</data>
  <data key="d1">-43.385556</data>
  <data key="d2">Francisco de Assis</data>
</node>
<node id="SNVB">
  <data key="d0">-13.296389</data>
  <data key="d1">-38.9925</data>
  <data key="d2">Valença</data>
</node>
<node id="SNPD">
  <data key="d0">-18.672222</data>
  <data key="d1">-46.491389</data>
  <data key="d2">Patos de Minas</data>
</node>
<node id="SSOL">
  <data key="d0">-21.243889</data>
  <data key="d1">-44.969444</data>
  <data key="d2">Lavras</data>
</node>
<node id="SBDO">
  <data key="d0">-22.200556</data>
  <data key="d1">-54.925556</data>
  <data key="d2">Dourados</data>
</node>
<node id="SJZA">
  <data key="d0">-6.8827778</data>
  <data key="d1">-38.615833</data>
  <data key="d2">Pedro Vieira Moreira</data>
</node>
<node id="SSGG">
  <data key="d0">-25.388333</data>
  <data key="d1">-51.523611</data>
  <data key="d2">Tancredo Thomas de Faria</data>
</node>
<node id="SBPO">
  <data key="d0">-26.217222</data>
  <data key="d1">-52.694444</data>
  <data key="d2">Aeroporto Juvenal Loureiro Cardoso</data>
</node>
<node id="SSOG">
  <data key="d0">-23.355833</data>
  <data key="d1">-51.490833</data>
  <data key="d2">Arapongas</data>
</node>
<node id="SBJR">
  <data key="d0">-22.9875</data>
  <data key="d1">-43.37</data>
  <data key="d2">Jacarepaguá - Roberto Marinho</data>
</node>
<node id="SSCK">
  <data key="d0">-27.180556</data>
  <data key="d1">-52.051111</data>
  <data key="d2">Olavo Cecco Rigon</data>
</node>
<node id="SDLP">
  <data key="d0">-22.578333</data>
  <data key="d1">-48.774444</data>
  <data key="d2">Municipal José Boso</data>
</node>
<node id="SBGM">
  <data key="d0">-10.788333</data>
  <data key="d1">-65.281667</data>
  <data key="d2">Guajará-Mirim</data>
</node>
<node id="SWWA">
  <data key="d0">-13.404444</data>
  <data key="d1">-49.157222</data>
  <data key="d2">Porangatu</data>
</node>
<node id="SWKT">
  <data key="d0">-18.216944</data>
  <data key="d1">-47.899444</data>
  <data key="d2">Catalão</data>
</node>
<node id="SDRK">
  <data key="d0">-22.431667</data>
  <data key="d1">-47.5625</data>
  <data key="d2">Rio Claro</data>
</node>
<node id="SBLE">
  <data key="d0">-12.482222</data>
  <data key="d1">-41.276944</data>
  <data key="d2">Horácio de Matos</data>
</node>
<node id="SNGI">
  <data key="d0">-14.208056</data>
  <data key="d1">-42.746111</data>
  <data key="d2">Aeródromo de Guanambi</data>
</node>
<node id="SNLN">
  <data key="d0">-19.355278</data>
  <data key="d1">-40.069444</data>
  <data key="d2">Municipal de Linhares</data>
</node>
<node id="SNMH">
  <data key="d0">-15.848056</data>
  <data key="d1">-48.980278</data>
  <data key="d2">Pirenópolis</data>
</node>
<node id="SNYU">
  <data key="d0">-19.717222</data>
  <data key="d1">-50.220278</data>
  <data key="d2">Aeródromo de Iturama</data>
</node>
<node id="SNDT">
  <data key="d0">-18.232222</data>
  <data key="d1">-43.650278</data>
  <data key="d2">Juscelino Kubitscheck</data>
</node>
<node id="SSUM">
  <data key="d0">-23.799167</data>
  <data key="d1">-53.313889</data>
  <data key="d2">Orlando de Carvalho</data>
</node>
<node id="SSTE">
  <data key="d0">-29.415</data>
  <data key="d1">-49.81</data>
  <data key="d2">Torres</data>
</node>
<node id="SBLJ">
  <data key="d0">-27.782222</data>
  <data key="d1">-50.281667</data>
  <data key="d2">Lages</data>
</node>
<node id="SSKW">
  <data key="d0">-11.495556</data>
  <data key="d1">-61.450833</data>
  <data key="d2">Cacoal</data>
</node>
<node id="SBMI">
  <data key="d0">-22.918056</data>
  <data key="d1">-42.828889</data>
  <data key="d2">Maricá</data>
</node>
<node id="SSKG">
  <data key="d0">-20.505556</data>
  <data key="d1">-54.524722</data>
  <data key="d2">Estância Santa Maria</data>
</node>
<node id="SWJW">
  <data key="d0">-17.83</data>
  <data key="d1">-51.775278</data>
  <data key="d2">Jataí</data>
</node>
<node id="SNOU">
  <data key="d0">-8.1413889</data>
  <data key="d1">-70.340833</data>
  <data key="d2">Novo Aeródromo de Feijó</data>
</node>
<node id="SBGW">
  <data key="d0">-22.791667</data>
  <data key="d1">-45.204444</data>
  <data key="d2">Guaratinguetá</data>
</node>
<node id="SSCI">
  <data key="d0">-18.481389</data>
  <data key="d1">-54.715833</data>
  <data key="d2">Coxim</data>
</node>
<node id="SWXM">
  <data key="d0">-10.170278</data>
  <data key="d1">-54.952778</data>
  <data key="d2">Regional Orlando Villas Boas</data>
</node>
<node id="SSMJ">
  <data key="d0">-21.633889</data>
  <data key="d1">-55.145</data>
  <data key="d2">Maracaju</data>
</node>
<node id="SSIQ">
  <data key="d0">-29.171944</data>
  <data key="d1">-56.538333</data>
  <data key="d2">Itaqui</data>
</node>
<node id="SWBG">
  <data key="d0">-15.193333</data>
  <data key="d1">-59.385278</data>
  <data key="d2">André Antônio Maggi</data>
</node>
<node id="SNGD">
  <data key="d0">-6.7822222</data>
  <data key="d1">-43.582222</data>
  <data key="d2">Guadalupe</data>
</node>
<node id="SNNU">
  <data key="d0">-17.823056</data>
  <data key="d1">-40.329722</data>
  <data key="d2">Nanuque</data>
</node>
<node id="SNJK">
  <data key="d0">-13.877778</data>
  <data key="d1">-40.071389</data>
  <data key="d2">Jequié</data>
</node>
<node id="SNZW">
  <data key="d0">-13.731667</data>
  <data key="d1">-39.140556</data>
  <data key="d2">Ituberá</data>
</node>
<node id="SIBU">
  <data key="d0">-6.3625</data>
  <data key="d1">-37.755278</data>
  <data key="d2">Catolé do Rocha</data>
</node>
<node id="SDTF">
  <data key="d0">-23.331944</data>
  <data key="d1">-47.88</data>
  <data key="d2">Tatuí</data>
</node>
<node id="SSCP">
  <data key="d0">-23.1525</data>
  <data key="d1">-50.6025</data>
  <data key="d2">Francisco Lacerda Júnior</data>
</node>
<node id="SNLT">
  <data key="d0">-8.1663889</data>
  <data key="d1">-41.153889</data>
  <data key="d2">Paulistana</data>
</node>
<node id="SSXX">
  <data key="d0">-26.875556</data>
  <data key="d1">-52.373056</data>
  <data key="d2">Municipal João Winckler</data>
</node>
<node id="SSAE">
  <data key="d0">-32.229167</data>
  <data key="d1">-53.055833</data>
  <data key="d2">Arroio Grande</data>
</node>
<node id="SJOG">
  <data key="d0">-9.8805556</data>
  <data key="d1">-63.047222</data>
  <data key="d2">Ariquemes</data>
</node>
<node id="SSGA">
  <data key="d0">-29.268333</data>
  <data key="d1">-51.532222</data>
  <data key="d2">Garibaldi</data>
</node>
<node id="SNNE">
  <data key="d0">-21.542222</data>
  <data key="d1">-43.021111</data>
  <data key="d2">Sebastião Carlos Leite</data>
</node>
<node id="SNYE">
  <data key="d0">-2.4775</data>
  <data key="d1">-45.105</data>
  <data key="d2">Pinheiro</data>
</node>
<node id="SNCT">
  <data key="d0">-19.725278</data>
  <data key="d1">-42.111111</data>
  <data key="d2">Caratinga</data>
</node>
<node id="SNLO">
  <data key="d0">-22.091667</data>
  <data key="d1">-45.045278</data>
  <data key="d2">São Lourenço</data>
</node>
<node id="SBPF">
  <data key="d0">-28.245278</data>
  <data key="d1">-52.328611</data>
  <data key="d2">Lauro Kurtz</data>
</node>
<node id="SSSB">
  <data key="d0">-28.654722</data>
  <data key="d1">-56.034722</data>
  <data key="d2">São Borja</data>
</node>
<node id="SDFX">
  <data key="d0">-9.1575</data>
  <data key="d1">-40.9375</data>
  <data key="d2">Casa Nova</data>
</node>
<node id="SSRU">
  <data key="d0">-31.384722</data>
  <data key="d1">-52.0325</data>
  <data key="d2">São Lourenço do Sul</data>
</node>
<node id="SSEP">
  <data key="d0">-30.182222</data>
  <data key="d1">-53.579444</data>
  <data key="d2">São Sepé</data>
</node>
<node id="SSIJ">
  <data key="d0">-28.368611</data>
  <data key="d1">-53.846389</data>
  <data key="d2">Ijuí</data>
</node>
<node id="SNIB">
  <data key="d0">-12.499722</data>
  <data key="d1">-40.270278</data>
  <data key="d2">Itaberaba</data>
</node>
<node id="SSVI">
  <data key="d0">-26.999722</data>
  <data key="d1">-51.141389</data>
  <data key="d2">Ângelo Ponzoni</data>
</node>
<node id="SNMK">
  <data key="d0">-15.093056</data>
  <data key="d1">-43.979167</data>
  <data key="d2">Mocambinho</data>
</node>
<node id="SNTQ">
  <data key="d0">-10.721667</data>
  <data key="d1">-43.653611</data>
  <data key="d2">Buritirama</data>
</node>
<node id="SDIG">
  <data key="d0">-21.747222</data>
  <data key="d1">-48.855833</data>
  <data key="d2">Ibitinga</data>
</node>
<node id="SNRX">
  <data key="d0">-7.3502778</data>
  <data key="d1">-46.633889</data>
  <data key="d2">Riachão</data>
</node>
<node id="SWDM">
  <data key="d0">-14.376667</data>
  <data key="d1">-56.400556</data>
  <data key="d2">Diamantino</data>
</node>
<node id="SNOE">
  <data key="d0">-7.0188889</data>
  <data key="d1">-42.167222</data>
  <data key="d2">Oeiras</data>
</node>
<node id="SNIT">
  <data key="d0">-12.164444</data>
  <data key="d1">-43.225556</data>
  <data key="d2">Ibotirama</data>
</node>
<node id="SWKC">
  <data key="d0">-16.042778</data>
  <data key="d1">-57.629722</data>
  <data key="d2">Cáceres</data>
</node>
<node id="SSPI">
  <data key="d0">-23.09</data>
  <data key="d1">-52.488611</data>
  <data key="d2">Edu Chaves</data>
</node>
<node id="SSLO">
  <data key="d0">-22.917778</data>
  <data key="d1">-53.149722</data>
  <data key="d2">Attillio Accorsi</data>
</node>
<node id="SNWS">
  <data key="d0">-5.2111111</data>
  <data key="d1">-40.704167</data>
  <data key="d2">Crateús</data>
</node>
<node id="SSRF">
  <data key="d0">-12.765833</data>
  <data key="d1">-39.451111</data>
  <data key="d2">Castro Alves</data>
</node>
<node id="SBIC">
  <data key="d0">-3.1263889</data>
  <data key="d1">-58.481667</data>
  <data key="d2">Itacoatiara</data>
</node>
<node id="SWFR">
  <data key="d0">-15.556111</data>
  <data key="d1">-47.345278</data>
  <data key="d2">Formosa</data>
</node>
<node id="SDJO">
  <data key="d0">-20.593333</data>
  <data key="d1">-47.842222</data>
  <data key="d2">São Joaquim da Barra</data>
</node>
<node id="SNOX">
  <data key="d0">-1.7136111</data>
  <data key="d1">-55.835833</data>
  <data key="d2">Oriximiná</data>
</node>
<node id="SNSS">
  <data key="d0">-16.208333</data>
  <data key="d1">-42.321944</data>
  <data key="d2">Salinas</data>
</node>
<node id="SDNH">
  <data key="d0">-21.497778</data>
  <data key="d1">-49.234444</data>
  <data key="d2">Novo Horizonte</data>
</node>
<node id="SSTB">
  <data key="d0">-26.132778</data>
  <data key="d1">-50.309722</data>
  <data key="d2">Três Barras</data>
</node>
<node id="SSLN">
  <data key="d0">-27.159722</data>
  <data key="d1">-49.542778</data>
  <data key="d2">Helmuth Baungartem</data>
</node>
<node id="SNSE">
  <data key="d0">-9.7575</data>
  <data key="d1">-41.855</data>
  <data key="d2">Sento Sé</data>
</node>
<node id="SNJR">
  <data key="d0">-21.085556</data>
  <data key="d1">-44.225278</data>
  <data key="d2">Prefeito Octávio de Almeida Neves</data>
</node>
<node id="SNMJ">
  <data key="d0">-13.386111</data>
  <data key="d1">-40.466111</data>
  <data key="d2">Maracás</data>
</node>
<node id="SDCA">
  <data key="d0">-24.033611</data>
  <data key="d1">-48.356944</data>
  <data key="d2">Capão Bonito</data>
</node>
<node id="SWPL">
  <data key="d0">-12.198333</data>
  <data key="d1">-53.381667</data>
  <data key="d2">Posto Leonardo Vilas Boas</data>
</node>
<node id="SWYN">
  <data key="d0">-7.1722222</data>
  <data key="d1">-59.838889</data>
  <data key="d2">Apuí</data>
</node>
<node id="SNSG">
  <data key="d0">-8.0466667</data>
  <data key="d1">-39.133889</data>
  <data key="d2">Salgueiro</data>
</node>
<node id="SSGY">
  <data key="d0">-24.079722</data>
  <data key="d1">-54.188056</data>
  <data key="d2">Guaíra</data>
</node>
<node id="SSSC">
  <data key="d0">-29.684167</data>
  <data key="d1">-52.412222</data>
  <data key="d2">Santa Cruz do Sul</data>
</node>
<node id="SWRO">
  <data key="d0">-8.7936111</data>
  <data key="d1">-63.858056</data>
  <data key="d2">Aeroclube de Rondônia</data>
</node>
<node id="SNPC">
  <data key="d0">-7.0652778</data>
  <data key="d1">-41.519444</data>
  <data key="d2">Picos</data>
</node>
<node id="SBTK">
  <data key="d0">-8.1547222</data>
  <data key="d1">-70.782778</data>
  <data key="d2">Tarauacá</data>
</node>
<node id="SBCD">
  <data key="d0">-26.789722</data>
  <data key="d1">-50.939722</data>
  <data key="d2">Carlos Alberto da Costa Neves</data>
</node>
<node id="SNBI">
  <data key="d0">-4.2280556</data>
  <data key="d1">-44.819722</data>
  <data key="d2">Bacabal</data>
</node>
<node id="SSPM">
  <data key="d0">-21.712778</data>
  <data key="d1">-57.879167</data>
  <data key="d2">Porto Murtinho</data>
</node>
<node id="SWPR">
  <data key="d0">-17.318889</data>
  <data key="d1">-48.334722</data>
  <data key="d2">Pires do Rio</data>
</node>
<node id="SBPR">
  <data key="d0">-19.909167</data>
  <data key="d1">-43.989167</data>
  <data key="d2">Carlos Prates</data>
</node>
<node id="SDKF">
  <data key="d0">-9.1552778</data>
  <data key="d1">-40.091667</data>
  <data key="d2">Juazeiro</data>
</node>
<node id="SNQV">
  <data key="d0">-18.749444</data>
  <data key="d1">-44.458056</data>
  <data key="d2">Curvelo</data>
</node>
<node id="SDMH">
  <data key="d0">-20.807222</data>
  <data key="d1">-49.486111</data>
  <data key="d2">Mirassol</data>
</node>
<node id="SDPV">
  <data key="d0">-21.893333</data>
  <data key="d1">-51.884444</data>
  <data key="d2">Presidente Venceslau</data>
</node>
<node id="SNPJ">
  <data key="d0">-18.909167</data>
  <data key="d1">-46.982778</data>
  <data key="d2">Patrocínio</data>
</node>
<node id="SBIP">
  <data key="d0">-19.470556</data>
  <data key="d1">-42.488056</data>
  <data key="d2">Usiminas</data>
</node>
<node id="SSNH">
  <data key="d0">-29.699167</data>
  <data key="d1">-51.081944</data>
  <data key="d2">Novo Hamburgo</data>
</node>
<node id="SJVO">
  <data key="d0">-15.899167</data>
  <data key="d1">-52.245278</data>
  <data key="d2">Aragarças</data>
</node>
<node id="SSBV">
  <data key="d0">-22.082222</data>
  <data key="d1">-56.538333</data>
  <data key="d2">Bela Vista</data>
</node>
<node id="SJBY">
  <data key="d0">-3.6544444</data>
  <data key="d1">-45.345278</data>
  <data key="d2">João Silva</data>
</node>
<node id="SSSD">
  <data key="d0">-28.863333</data>
  <data key="d1">-52.540556</data>
  <data key="d2">Soledade</data>
</node>
<node id="SDTK">
  <data key="d0">-23.224444</data>
  <data key="d1">-44.720278</data>
  <data key="d2">Parati</data>
</node>
<node id="SDRS">
  <data key="d0">-22.478611</data>
  <data key="d1">-44.481667</data>
  <data key="d2">Resende</data>
</node>
<node id="SSQP">
  <data key="d0">-10.465278</data>
  <data key="d1">-39.286111</data>
  <data key="d2">Monte Santo</data>
</node>
<node id="SNKD">
  <data key="d0">-19.020278</data>
  <data key="d1">-43.433889</data>
  <data key="d2">Conceição do Mato Dentro</data>
</node>
<node id="SSLG">
  <data key="d0">-28.376389</data>
  <data key="d1">-55.0375</data>
  <data key="d2">São Luiz Gonzaga</data>
</node>
<node id="SWDN">
  <data key="d0">-11.595278</data>
  <data key="d1">-46.847778</data>
  <data key="d2">Dianópolis</data>
</node>
<node id="SNJB">
  <data key="d0">-11.163056</data>
  <data key="d1">-40.553333</data>
  <data key="d2">Jacobina</data>
</node>
<node id="SSCL">
  <data key="d0">-19.146944</data>
  <data key="d1">-51.676389</data>
  <data key="d2">Cassilândia</data>
</node>
<node id="SNTO">
  <data key="d0">-17.890833</data>
  <data key="d1">-41.515</data>
  <data key="d2">Juscelino Kubitscheck</data>
</node>
<node id="SDBK">
  <data key="d0">-22.936667</data>
  <data key="d1">-48.4675</data>
  <data key="d2">Tancredo de Almeida Neves</data>
</node>
<node id="SWVC">
  <data key="d0">-9.9811111</data>
  <data key="d1">-51.140556</data>
  <data key="d2">Vila Rica</data>
</node>
<node id="SIBW">
  <data key="d0">-7.5625</data>
  <data key="d1">-38.4975</data>
  <data key="d2">Conceição</data>
</node>
<node id="SWMW">
  <data key="d0">-3.3569444</data>
  <data key="d1">-57.712222</data>
  <data key="d2">Maués</data>
</node>
<node id="SDVG">
  <data key="d0">-20.457222</data>
  <data key="d1">-50.0025</data>
  <data key="d2">Domingos Pignatari</data>
</node>
<node id="SIZX">
  <data key="d0">-11.296667</data>
  <data key="d1">-57.548889</data>
  <data key="d2">Juara Sul</data>
</node>
<node id="SJXI">
  <data key="d0">-22.272778</data>
  <data key="d1">-45.64</data>
  <data key="d2">Santa Rita do Sapucaí</data>
</node>
<node id="SNPU">
  <data key="d0">-21.561389</data>
  <data key="d1">-45.754722</data>
  <data key="d2">Paraguaçu</data>
</node>
<node id="SSAB">
  <data key="d0">-23.763056</data>
  <data key="d1">-50.259167</data>
  <data key="d2">Moisés Lupion</data>
</node>
<node id="SDVE">
  <data key="d0">-22.230278</data>
  <data key="d1">-49.816944</data>
  <data key="d2">Vera Cruz</data>
</node>
<node id="SNRZ">
  <data key="d0">-20.714444</data>
  <data key="d1">-44.865278</data>
  <data key="d2">Oliveira</data>
</node>
<node id="SDKJ">
  <data key="d0">-11.021111</data>
  <data key="d1">-45.187222</data>
  <data key="d2">Formosa do Rio Preto</data>
</node>
<node id="SBLP">
  <data key="d0">-13.261389</data>
  <data key="d1">-43.4075</data>
  <data key="d2">Bom Jesus da Lapa</data>
</node>
<node id="SNGB">
  <data key="d0">-9.8336111</data>
  <data key="d1">-45.367222</data>
  <data key="d2">Gilbués</data>
</node>
<node id="SSKZ">
  <data key="d0">-28.321389</data>
  <data key="d1">-52.815556</data>
  <data key="d2">Carazinho</data>
</node>
<node id="SDTI">
  <data key="d0">-21.393056</data>
  <data key="d1">-51.598889</data>
  <data key="d2">Tupi Paulista</data>
</node>
<node id="SSFL">
  <data key="d0">-7.1</data>
  <data key="d1">-40.628333</data>
  <data key="d2">João Pereira dos Santos Filho</data>
</node>
<node id="SNJP">
  <data key="d0">-17.7875</data>
  <data key="d1">-46.12</data>
  <data key="d2">João Pinheiro</data>
</node>
<node id="SSPS">
  <data key="d0">-26.472222</data>
  <data key="d1">-51.975556</data>
  <data key="d2">Dimorvan Carraro</data>
</node>
<node id="SNJN">
  <data key="d0">-15.474722</data>
  <data key="d1">-44.386389</data>
  <data key="d2">Januária</data>
</node>
<node id="SDBA">
  <data key="d0">-20.876944</data>
  <data key="d1">-47.585833</data>
  <data key="d2">Batatais</data>
</node>
<node id="SNTR">
  <data key="d0">-11.738056</data>
  <data key="d1">-40.569722</data>
  <data key="d2">Piritiba</data>
</node>
<node id="SSOI">
  <data key="d0">-22.306389</data>
  <data key="d1">-48.773889</data>
  <data key="d2">Pederneiras</data>
</node>
<node id="SNAG">
  <data key="d0">-18.668056</data>
  <data key="d1">-48.190278</data>
  <data key="d2">Araguari</data>
</node>
<node id="SNBC">
  <data key="d0">-5.5025</data>
  <data key="d1">-45.215833</data>
  <data key="d2">Barra do Corda</data>
</node>
<node id="SSCR">
  <data key="d0">-24.512778</data>
  <data key="d1">-54.053889</data>
  <data key="d2">Ruben Berta</data>
</node>
<node id="SDPY">
  <data key="d0">-22.027778</data>
  <data key="d1">-47.421667</data>
  <data key="d2">Pirassununga</data>
</node>
<node id="SDJC">
  <data key="d0">-21.230833</data>
  <data key="d1">-48.285556</data>
  <data key="d2">Jaboticabal</data>
</node>
<node id="SDUN">
  <data key="d0">-21.219444</data>
  <data key="d1">-41.875556</data>
  <data key="d2">Itaperuna</data>
</node>
<node id="SNQU">
  <data key="d0">-13.031667</data>
  <data key="d1">-41.444444</data>
  <data key="d2">Mucugê</data>
</node>
<node id="SDFD">
  <data key="d0">-20.276667</data>
  <data key="d1">-50.213889</data>
  <data key="d2">Coronel Aviador Carlos Orleans Guimarães</data>
</node>
<node id="SNUB">
  <data key="d0">-21.1225</data>
  <data key="d1">-42.882222</data>
  <data key="d2">Ubá</data>
</node>
<node id="SDNM">
  <data key="d0">-13.821111</data>
  <data key="d1">-56.038611</data>
  <data key="d2">Brigadeiro Eduardo Gomes</data>
</node>
<node id="SSMT">
  <data key="d0">-31.104167</data>
  <data key="d1">-50.912222</data>
  <data key="d2">Mostardas</data>
</node>
<node id="SNYB">
  <data key="d0">-19.001944</data>
  <data key="d1">-49.487222</data>
  <data key="d2">Tito Teixeira</data>
</node>
<node id="SBTU">
  <data key="d0">-3.7769444</data>
  <data key="d1">-49.719722</data>
  <data key="d2">Tucuruí</data>
</node>
<node id="SNFE">
  <data key="d0">-21.431667</data>
  <data key="d1">-45.933056</data>
  <data key="d2">Comandante Paschoal Patrocínio Filho</data>
</node>
<node id="SSUV">
  <data key="d0">-26.231667</data>
  <data key="d1">-51.068889</data>
  <data key="d2">José Cleto</data>
</node>
<node id="SDGC">
  <data key="d0">-22.183611</data>
  <data key="d1">-49.656111</data>
  <data key="d2">Garça</data>
</node>
<node id="SWTP">
  <data key="d0">-0.4169444</data>
  <data key="d1">-65.033889</data>
  <data key="d2">Santa Izabel do Rio Negro</data>
</node>
<node id="SDAA">
  <data key="d0">-22.336944</data>
  <data key="d1">-47.358333</data>
  <data key="d2">Araras</data>
</node>
<node id="SNQX">
  <data key="d0">-4.9788889</data>
  <data key="d1">-38.987778</data>
  <data key="d2">Quixadá</data>
</node>
<node id="SDUQ">
  <data key="d0">-22.426944</data>
  <data key="d1">-50.606944</data>
  <data key="d2">Paraguaçu Paulista</data>
</node>
<node id="SDRR">
  <data key="d0">-23.093056</data>
  <data key="d1">-48.984167</data>
  <data key="d2">Avaré-Arandu</data>
</node>
<node id="SSBL">
  <data key="d0">-26.832778</data>
  <data key="d1">-49.093611</data>
  <data key="d2">Blumenau</data>
</node>
<node id="SNBS">
  <data key="d0">-7.5252778</data>
  <data key="d1">-46.053333</data>
  <data key="d2">Balsas</data>
</node>
<node id="SWNK">
  <data key="d0">-8.8347222</data>
  <data key="d1">-67.3125</data>
  <data key="d2">Novo Campo</data>
</node>
<node id="SSSZ">
  <data key="d0">-23.061944</data>
  <data key="d1">-51.013889</data>
  <data key="d2">Sertanópolis</data>
</node>
<node id="SNST">
  <data key="d0">-12.097222</data>
  <data key="d1">-41.640556</data>
  <data key="d2">Souto Soares</data>
</node>
<node id="SSAN">
  <data key="d0">-23.026944</data>
  <data key="d1">-50.228333</data>
  <data key="d2">João Galdino</data>
</node>
<node id="SNUH">
  <data key="d0">-20.438889</data>
  <data key="d1">-45.992222</data>
  <data key="d2">Piumhi</data>
</node>
<node id="SWHT">
  <data key="d0">-7.5336111</data>
  <data key="d1">-63.050556</data>
  <data key="d2">Francisco Correa da Cruz</data>
</node>
<node id="SWBE">
  <data key="d0">-4.05</data>
  <data key="d1">-40.883333</data>
  <data key="d2">Walfrido Samito de Almeida</data>
</node>
<node id="SWII">
  <data key="d0">-2.9336111</data>
  <data key="d1">-69.694722</data>
  <data key="d2">Ipiranga</data>
</node>
<node id="SSNQ">
  <data key="d0">-21.184722</data>
  <data key="d1">-55.830278</data>
  <data key="d2">Nioaque</data>
</node>
<node id="SBJC">
  <data key="d0">-1.415</data>
  <data key="d1">-48.458889</data>
  <data key="d2">Belém / Brigadeiro Protásio de Oliveira</data>
</node>
<node id="SNBA">
  <data key="d0">-20.585556</data>
  <data key="d1">-48.595833</data>
  <data key="d2">Chafei Amsei</data>
</node>
<node id="SNIE">
  <data key="d0">-14.012222</data>
  <data key="d1">-42.493889</data>
  <data key="d2">Caetité</data>
</node>
<node id="SDAD">
  <data key="d0">-21.696111</data>
  <data key="d1">-51.096389</data>
  <data key="d2">Everaldo Moraes Barreto</data>
</node>
<node id="SNEB">
  <data key="d0">-3.0197222</data>
  <data key="d1">-47.316389</data>
  <data key="d2">Nagib Demachki</data>
</node>
<node id="SDBY">
  <data key="d0">-22.069167</data>
  <data key="d1">-48.706389</data>
  <data key="d2">Bariri</data>
</node>
<node id="SNBG">
  <data key="d0">-19.498889</data>
  <data key="d1">-41.041944</data>
  <data key="d2">Baixo Guandu - Aimorés</data>
</node>
<node id="SBBI">
  <data key="d0">-25.403333</data>
  <data key="d1">-49.233611</data>
  <data key="d2">Bacacheri</data>
</node>
<node id="SSGB">
  <data key="d0">-25.880556</data>
  <data key="d1">-48.612222</data>
  <data key="d2">Municipal de Guaratuba</data>
</node>
<node id="SWCZ">
  <data key="d0">-15.344722</data>
  <data key="d1">-49.604722</data>
  <data key="d2">Ceres</data>
</node>
<node id="SSRG">
  <data key="d0">-24.531667</data>
  <data key="d1">-47.840278</data>
  <data key="d2">Aeroporto Estadual de Registro</data>
</node>
<node id="SSPG">
  <data key="d0">-25.540556</data>
  <data key="d1">-48.531111</data>
  <data key="d2">Santos Dumont</data>
</node>
<node id="SNCZ">
  <data key="d0">-20.403056</data>
  <data key="d1">-42.916667</data>
  <data key="d2">Ponte Nova</data>
</node>
<node id="SNAS">
  <data key="d0">-18.225</data>
  <data key="d1">-45.190556</data>
  <data key="d2">Três Marias</data>
</node>
<node id="SWXV">
  <data key="d0">-14.690833</data>
  <data key="d1">-52.349167</data>
  <data key="d2">Xavantina</data>
</node>
<node id="SBOI">
  <data key="d0">3.8613889</data>
  <data key="d1">-51.796111</data>
  <data key="d2">Oiapoque</data>
</node>
<node id="SNVI">
  <data key="d0">-21.789167</data>
  <data key="d1">-45.268056</data>
  <data key="d2">Mello Viana</data>
</node>
<node id="SSMR">
  <data key="d0">-24.529444</data>
  <data key="d1">-51.651667</data>
  <data key="d2">Manoel Ribas</data>
</node>
<node id="SNBX">
  <data key="d0">-11.081111</data>
  <data key="d1">-43.1475</data>
  <data key="d2">Barra</data>
</node>
<node id="SNCA">
  <data key="d0">-20.8925</data>
  <data key="d1">-45.335556</data>
  <data key="d2">Campo Belo</data>
</node>
<node id="SSKK">
  <data key="d0">-29.763611</data>
  <data key="d1">-50.036944</data>
  <data key="d2">Capão da Canoa</data>
</node>
<node id="SSQC">
  <data key="d0">-23.674444</data>
  <data key="d1">-49.818889</data>
  <data key="d2">Aguinaldo Pereira Lima</data>
</node>
<node id="SDKK">
  <data key="d0">-21.487222</data>
  <data key="d1">-47.033889</data>
  <data key="d2">Mococa</data>
</node>
<node id="SNPX">
  <data key="d0">-17.313889</data>
  <data key="d1">-44.858611</data>
  <data key="d2">Pirapora</data>
</node>
<node id="SWPK">
  <data key="d0">-16.271667</data>
  <data key="d1">-56.651111</data>
  <data key="d2">Poconé</data>
</node>
<node id="SDCG">
  <data key="d0">-3.4705556</data>
  <data key="d1">-68.924167</data>
  <data key="d2">Senadora Eunice Michiles</data>
</node>
<node id="SNZR">
  <data key="d0">-17.243056</data>
  <data key="d1">-46.881389</data>
  <data key="d2">Pedro Rabelo de Souza</data>
</node>
<node id="SDET">
  <data key="d0">-23.104722</data>
  <data key="d1">-47.724444</data>
  <data key="d2">Tietê</data>
</node>
<node id="SNBM">
  <data key="d0">-21.128889</data>
  <data key="d1">-42.366944</data>
  <data key="d2">Cristiano Ferreira Varella</data>
</node>
<node id="SSCT">
  <data key="d0">-23.691667</data>
  <data key="d1">-52.642222</data>
  <data key="d2">Engenheiro Gastão de Mesquita Filho</data>
</node>
<node id="SNEE">
  <data key="d0">-28.431944</data>
  <data key="d1">-51.022778</data>
  <data key="d2">Vacaria Novo</data>
</node>
<node id="SNQD">
  <data key="d0">-6.7855556</data>
  <data key="d1">-38.233889</data>
  <data key="d2">Sousa</data>
</node>
<node id="SSST">
  <data key="d0">-29.215</data>
  <data key="d1">-54.842222</data>
  <data key="d2">Santiago</data>
</node>
<node id="SSKS">
  <data key="d0">-30.002222</data>
  <data key="d1">-52.940278</data>
  <data key="d2">Brigadeiro Nero Moura</data>
</node>
<node id="SSEZ">
  <data key="d0">-28.738056</data>
  <data key="d1">-52.855556</data>
  <data key="d2">Espumoso</data>
</node>
<node id="SDBB">
  <data key="d0">-20.900278</data>
  <data key="d1">-48.473611</data>
  <data key="d2">Bebedouro</data>
</node>
<node id="SBJI">
  <data key="d0">-10.870556</data>
  <data key="d1">-61.846667</data>
  <data key="d2">Ji-Paraná</data>
</node>
<node id="SWTY">
  <data key="d0">-12.433889</data>
  <data key="d1">-46.400556</data>
  <data key="d2">Taguatinga</data>
</node>
<node id="SWUD">
  <data key="d0">-20.445833</data>
  <data key="d1">-44.812778</data>
  <data key="d2">Deputado Oswaldo Tolentino</data>
</node>
<node id="SDCO">
  <data key="d0">-23.483056</data>
  <data key="d1">-47.486389</data>
  <data key="d2">Sorocaba</data>
</node>
<node id="SSRZ">
  <data key="d0">-30.2775</data>
  <data key="d1">-54.925278</data>
  <data key="d2">Dário Brasil Capoano de Oliveira</data>
</node>
<node id="SWUA">
  <data key="d0">-13.333889</data>
  <data key="d1">-50.205833</data>
  <data key="d2">São Miguel do Araguaia</data>
</node>
<node id="SJTS">
  <data key="d0">-2.0727778</data>
  <data key="d1">-56.488889</data>
  <data key="d2">Terra Santa</data>
</node>
<node id="SSHZ">
  <data key="d0">-27.638333</data>
  <data key="d1">-54.338889</data>
  <data key="d2">Walter Bündchen</data>
</node>
<node id="SDMO">
  <data key="d0">-21.258056</data>
  <data key="d1">-48.524167</data>
  <data key="d2">Monte Alto</data>
</node>
<node id="SIBZ">
  <data key="d0">-7.3111111</data>
  <data key="d1">-38.113611</data>
  <data key="d2">Itaporanga</data>
</node>
<node id="SWBC">
  <data key="d0">-0.9808333</data>
  <data key="d1">-62.918889</data>
  <data key="d2">Barcelos</data>
</node>
<node id="SNUN">
  <data key="d0">-16.353889</data>
  <data key="d1">-46.926944</data>
  <data key="d2">Unaí</data>
</node>
<node id="SNVC">
  <data key="d0">-20.744722</data>
  <data key="d1">-42.841944</data>
  <data key="d2">Viçosa</data>
</node>
<node id="SDLL">
  <data key="d0">-22.225833</data>
  <data key="d1">-47.380833</data>
  <data key="d2">Yolanda Penteado</data>
</node>
<node id="SNIG">
  <data key="d0">-6.3477778</data>
  <data key="d1">-39.298611</data>
  <data key="d2">Iguatu</data>
</node>
<node id="SWWU">
  <data key="d0">-14.544722</data>
  <data key="d1">-49.091111</data>
  <data key="d2">Uruaçu</data>
</node>
<node id="SWEK">
  <data key="d0">-13.5775</data>
  <data key="d1">-52.268056</data>
  <data key="d2">Canarana</data>
</node>
<node id="SNBZ">
  <data key="d0">-13.490556</data>
  <data key="d1">-42.229167</data>
  <data key="d2">Paramirim</data>
</node>
<node id="SILC">
  <data key="d0">-13.037778</data>
  <data key="d1">-55.950278</data>
  <data key="d2">Aeroporto Municipal Bom Futuro</data>
</node>
<node id="SSSS">
  <data key="d0">-26.221111</data>
  <data key="d1">-48.564444</data>
  <data key="d2">São Francisco do Sul</data>
</node>
<node id="SNTM">
  <data key="d0">-17.233889</data>
  <data key="d1">-42.733889</data>
  <data key="d2">Turmalina</data>
</node>
<node id="SSIE">
  <data key="d0">-20.603889</data>
  <data key="d1">-54.595278</data>
  <data key="d2">Teruel Ipanema Estância</data>
</node>
<node id="SSGW">
  <data key="d0">-24.219722</data>
  <data key="d1">-53.043889</data>
  <data key="d2">Manoel Ribas</data>
</node>
<node id="SNKN">
  <data key="d0">-6.2808333</data>
  <data key="d1">-36.540278</data>
  <data key="d2">Currais Novos</data>
</node>
<node id="SIBY">
  <data key="d0">-7.8783333</data>
  <data key="d1">-37.136667</data>
  <data key="d2">Monteiro</data>
</node>
<node id="SSXD">
  <data key="d0">-27.980556</data>
  <data key="d1">-52.864444</data>
  <data key="d2">Tobias Bacci</data>
</node>
<node id="SNRD">
  <data key="d0">-17.296944</data>
  <data key="d1">-39.271944</data>
  <data key="d2">Prado</data>
</node>
<node id="SWUZ">
  <data key="d0">-16.261667</data>
  <data key="d1">-47.968611</data>
  <data key="d2">Brigadeiro Araripe Macedo</data>
</node>
<node id="SSPN">
  <data key="d0">-19.651111</data>
  <data key="d1">-51.199444</data>
  <data key="d2">Paranaíba</data>
</node>
<node id="SNJO">
  <data key="d0">-7.0916667</data>
  <data key="d1">-34.841944</data>
  <data key="d2">Aeroclube de João Pessoa</data>
</node>
<node id="SJGU">
  <data key="d0">-5.6844444</data>
  <data key="d1">-48.115556</data>
  <data key="d2">Araguatins</data>
</node>
<node id="SNAP">
  <data key="d0">-15.731944</data>
  <data key="d1">-43.323056</data>
  <data key="d2">Janaúba</data>
</node>
<node id="SNSW">
  <data key="d0">-0.6977778</data>
  <data key="d1">-48.519444</data>
  <data key="d2">Soure</data>
</node>
<node id="SSOS">
  <data key="d0">-29.902222</data>
  <data key="d1">-50.249167</data>
  <data key="d2">Osório</data>
</node>
<node id="SSCV">
  <data key="d0">-17.650556</data>
  <data key="d1">-39.254444</data>
  <data key="d2">Caravelas</data>
</node>
<node id="SSAK">
  <data key="d0">-28.658611</data>
  <data key="d1">-53.611389</data>
  <data key="d2">Carlos Ruhl</data>
</node>
<node id="SJQN">
  <data key="d0">-18.446111</data>
  <data key="d1">-50.409167</data>
  <data key="d2">Quirinópolis</data>
</node>
<node id="SWPY">
  <data key="d0">-15.565556</data>
  <data key="d1">-54.337778</data>
  <data key="d2">Primavera do Leste</data>
</node>
<node id="SWNR">
  <data key="d0">-14.483611</data>
  <data key="d1">-56.767222</data>
  <data key="d2">Nortelândia</data>
</node>
<node id="SNIO">
  <data key="d0">-11.125278</data>
  <data key="d1">-38.486944</data>
  <data key="d2">Cipó</data>
</node>
<node id="SNFX">
  <data key="d0">-6.6402778</data>
  <data key="d1">-51.99</data>
  <data key="d2">São Félix do Xingu</data>
</node>
<node id="SBMY">
  <data key="d0">-5.8169444</data>
  <data key="d1">-61.283889</data>
  <data key="d2">Manicoré</data>
</node>
<node id="SSWS">
  <data key="d0">-30.549444</data>
  <data key="d1">-53.459167</data>
  <data key="d2">Caçapava do Sul</data>
</node>
<node id="SSBN">
  <data key="d0">-30.189167</data>
  <data key="d1">-51.1825</data>
  <data key="d2">Belém Novo</data>
</node>
<node id="SNJQ">
  <data key="d0">-16.441389</data>
  <data key="d1">-41.037222</data>
  <data key="d2">Jequitinhonha</data>
</node>
<node id="SBCI">
  <data key="d0">-7.3205556</data>
  <data key="d1">-47.458611</data>
  <data key="d2">Brigadeiro Lysias Augusto Rodrigues</data>
</node>
<node id="SNDC">
  <data key="d0">-8.0311111</data>
  <data key="d1">-49.979722</data>
  <data key="d2">Redenção</data>
</node>
<node id="SBAA">
  <data key="d0">-8.3486111</data>
  <data key="d1">-49.303056</data>
  <data key="d2">Conceição do Araguaia</data>
</node>
<node id="SNPA">
  <data key="d0">-19.8425</data>
  <data key="d1">-44.600833</data>
  <data key="d2">Pará de Minas</data>
</node>
<node id="SSAQ">
  <data key="d0">-28.250556</data>
  <data key="d1">-52.516667</data>
  <data key="d2">Aeroclube de Passo Fundo</data>
</node>
<node id="SWFN">
  <data key="d0">-3.0727778</data>
  <data key="d1">-60.021111</data>
  <data key="d2">Flores</data>
</node>
<node id="SNMN">
  <data key="d0">-17.233889</data>
  <data key="d1">-42.583889</data>
  <data key="d2">Minas Novas</data>
</node>
<node id="SSJA">
  <data key="d0">-27.172778</data>
  <data key="d1">-51.551667</data>
  <data key="d2">Santa Terezinha</data>
</node>
<node id="SWCB">
  <data key="d0">-13.006944</data>
  <data key="d1">-46.710833</data>
  <data key="d2">Campos Belos</data>
</node>
<node id="SWNH">
  <data key="d0">-14.933056</data>
  <data key="d1">-51.048333</data>
  <data key="d2">Aruanã</data>
</node>
<node id="SNOF">
  <data key="d0">-22.2975</data>
  <data key="d1">-46.393333</data>
  <data key="d2">Ouro Fino</data>
</node>
<node id="SNMZ">
  <data key="d0">-1.7413889</data>
  <data key="d1">-52.235833</data>
  <data key="d2">Porto de Moz</data>
</node>
<node id="SDXJ">
  <data key="d0">-18.491389</data>
  <data key="d1">-53.168333</data>
  <data key="d2">Costa Rica</data>
</node>
<node id="SNCS">
  <data key="d0">-7.0516667</data>
  <data key="d1">-40.358333</data>
  <data key="d2">Campos Sales</data>
</node>
<node id="SNED">
  <data key="d0">-15.666389</data>
  <data key="d1">-38.955278</data>
  <data key="d2">Sócrates Rezende</data>
</node>
<node id="SNXQ">
  <data key="d0">-10.834167</data>
  <data key="d1">-42.683333</data>
  <data key="d2">Xique-Xique</data>
</node>
<node id="SWCQ">
  <data key="d0">-12.421667</data>
  <data key="d1">-64.251667</data>
  <data key="d2">Costa Marques</data>
</node>
<node id="SSPL">
  <data key="d0">-27.901667</data>
  <data key="d1">-53.328889</data>
  <data key="d2">Palmeira das Missões</data>
</node>
<node id="SNOC">
  <data key="d0">-11.534444</data>
  <data key="d1">-41.179722</data>
  <data key="d2">Morro do Chapéu</data>
</node>
<node id="SDUB">
  <data key="d0">-23.441389</data>
  <data key="d1">-45.076111</data>
  <data key="d2">Estadual Gastão Madeira</data>
</node>
<node id="SWNQ">
  <data key="d0">-14.436389</data>
  <data key="d1">-48.491944</data>
  <data key="d2">Niquelândia</data>
</node>
<node id="SDIV">
  <data key="d0">-20.375278</data>
  <data key="d1">-47.768611</data>
  <data key="d2">Ituverava</data>
</node>
<node id="SNAR">
  <data key="d0">-16.183889</data>
  <data key="d1">-40.667222</data>
  <data key="d2">Cirilo Queiróz</data>
</node>
<node id="SNRP">
  <data key="d0">-19.2125</data>
  <data key="d1">-46.240556</data>
  <data key="d2">Rio Paranaíba</data>
</node>
<node id="SDLY">
  <data key="d0">-21.624167</data>
  <data key="d1">-48.350833</data>
  <data key="d2">Armando Natali</data>
</node>
<node id="SNIP">
  <data key="d0">-15.244444</data>
  <data key="d1">-40.277222</data>
  <data key="d2">Itapetinga</data>
</node>
<node id="SSQT">
  <data key="d0">-24.8075</data>
  <data key="d1">-49.960278</data>
  <data key="d2">Major Neodo S. Pereira</data>
</node>
<node id="SSSG">
  <data key="d0">-30.345</data>
  <data key="d1">-54.267778</data>
  <data key="d2">São Gabriel</data>
</node>
<node id="SNQG">
  <data key="d0">-6.8458333</data>
  <data key="d1">-43.0775</data>
  <data key="d2">Cangapara</data>
</node>
<node id="SSPT">
  <data key="d0">-24.343333</data>
  <data key="d1">-53.828611</data>
  <data key="d2">Brasílio Marques</data>
</node>
<node id="SNJM">
  <data key="d0">-20.259722</data>
  <data key="d1">-42.183889</data>
  <data key="d2">Elias Breder</data>
</node>
<node id="SNZA">
  <data key="d0">-22.288889</data>
  <data key="d1">-45.919444</data>
  <data key="d2">Pouso Alegre</data>
</node>
<node id="SSIR">
  <data key="d0">-28.604167</data>
  <data key="d1">-53.078611</data>
  <data key="d2">Ibirubá</data>
</node>
<node id="SNTI">
  <data key="d0">-1.8680556</data>
  <data key="d1">-55.514444</data>
  <data key="d2">Óbidos</data>
</node>
<node id="SNLI">
  <data key="d0">-19.157222</data>
  <data key="d1">-45.495833</data>
  <data key="d2">Doutor José Mourão</data>
</node>
<node id="SNVD">
  <data key="d0">-13.404722</data>
  <data key="d1">-44.223056</data>
  <data key="d2">Santa Maria da Vitória</data>
</node>
<node id="SSLT">
  <data key="d0">-29.8125</data>
  <data key="d1">-55.893333</data>
  <data key="d2">Gaudêncio Machado Ramos</data>
</node>
<node id="SSRE">
  <data key="d0">-25.801111</data>
  <data key="d1">-53.513056</data>
  <data key="d2">Realeza</data>
</node>
<node id="SDOV">
  <data key="d0">-14.768889</data>
  <data key="d1">-50.565</data>
  <data key="d2">Mozarlândia</data>
</node>
<node id="SNAB">
  <data key="d0">-7.5863889</data>
  <data key="d1">-40.535278</data>
  <data key="d2">Araripina</data>
</node>
<node id="SNFO">
  <data key="d0">-20.395278</data>
  <data key="d1">-45.486667</data>
  <data key="d2">Formiga</data>
</node>
<node id="SWKQ">
  <data key="d0">-9.0827778</data>
  <data key="d1">-42.644444</data>
  <data key="d2">Serra da Capivara/São Raimundo Nonato</data>
</node>
<node id="SNUI">
  <data key="d0">-16.851944</data>
  <data key="d1">-42.046111</data>
  <data key="d2">Araçuaí</data>
</node>
<node id="SDXF">
  <data key="d0">-14.119167</data>
  <data key="d1">-47.530278</data>
  <data key="d2">Alto Paraíso de Goiás</data>
</node>
<node id="SDLC">
  <data key="d0">-21.749444</data>
  <data key="d1">-51.018333</data>
  <data key="d2">Lucélia</data>
</node>
<node id="SSER">
  <data key="d0">-27.66</data>
  <data key="d1">-52.276111</data>
  <data key="d2">Erechim</data>
</node>
<node id="SSJI">
  <data key="d0">-21.492778</data>
  <data key="d1">-56.152778</data>
  <data key="d2">Jardim</data>
</node>
<node id="SWIQ">
  <data key="d0">-13.550556</data>
  <data key="d1">-48.200556</data>
  <data key="d2">Minaçu</data>
</node>
<node id="SNGG">
  <data key="d0">-9.0594444</data>
  <data key="d1">-44.369167</data>
  <data key="d2">Bom Jesus do Gurguéia</data>
</node>
<node id="SWTO">
  <data key="d0">-10.173889</data>
  <data key="d1">-48.932778</data>
  <data key="d2">Paraíso do Tocantins</data>
</node>
<node id="SSEE">
  <data key="d0">-29.453333</data>
  <data key="d1">-51.934167</data>
  <data key="d2">Regional do Vale do Taquari</data>
</node>
<node id="SNSM">
  <data key="d0">-0.6969444</data>
  <data key="d1">-47.337778</data>
  <data key="d2">Salinópolis</data>
</node>
<node id="SSRS">
  <data key="d0">-2.7566667</data>
  <data key="d1">-42.804444</data>
  <data key="d2">Barreirinhas</data>
</node>
<node id="SSJK">
  <data key="d0">-29.153056</data>
  <data key="d1">-53.743333</data>
  <data key="d2">Júlio de Castilhos</data>
</node>
<node id="SICB">
  <data key="d0">-6.4875</data>
  <data key="d1">-36.14</data>
  <data key="d2">Pedro Simões Pimenta</data>
</node>
<node id="SNRM">
  <data key="d0">-9.58</data>
  <data key="d1">-42.115833</data>
  <data key="d2">Remanso</data>
</node>
<node id="SDMJ">
  <data key="d0">-22.41</data>
  <data key="d1">-46.904722</data>
  <data key="d2">Mogi Mirim</data>
</node>
<node id="SJAU">
  <data key="d0">-8.8377778</data>
  <data key="d1">-49.557778</data>
  <data key="d2">Araguacema</data>
</node>
<node id="SWME">
  <data key="d0">-17.551944</data>
  <data key="d1">-52.556111</data>
  <data key="d2">Mineiros</data>
</node>
<node id="SWOB">
  <data key="d0">-2.5336111</data>
  <data key="d1">-66.067222</data>
  <data key="d2">Fonte Boa</data>
</node>
<node id="SNKF">
  <data key="d0">-20.738611</data>
  <data key="d1">-43.798056</data>
  <data key="d2">Das Bandeirinhas</data>
</node>
<node id="SNUC">
  <data key="d0">-5.595</data>
  <data key="d1">-36.960833</data>
  <data key="d2">Açu</data>
</node>
<node id="SNSI">
  <data key="d0">-18.198611</data>
  <data key="d1">-42.466111</data>
  <data key="d2">Santa Maria do Suaçuí</data>
</node>
<node id="SDPD">
  <data key="d0">-22.943889</data>
  <data key="d1">-45.431944</data>
  <data key="d2">Pindamonhangaba</data>
</node>
<node id="SDEP">
  <data key="d0">-21.775556</data>
  <data key="d1">-52.163056</data>
  <data key="d2">Geraldo Moacir Bordon</data>
</node>
<node id="SDTP">
  <data key="d0">-21.89</data>
  <data key="d1">-50.505833</data>
  <data key="d2">José Vicente Faria Lima</data>
</node>
<node id="SBEK">
  <data key="d0">-6.2352778</data>
  <data key="d1">-57.775833</data>
  <data key="d2">Jacareacanga</data>
</node>
<node id="SSVL">
  <data key="d0">-24.316389</data>
  <data key="d1">-50.652222</data>
  <data key="d2">Telêmaco Borba</data>
</node>
<node id="SSVN">
  <data key="d0">-28.935556</data>
  <data key="d1">-51.567778</data>
  <data key="d2">Veranópolis</data>
</node>
<node id="SSNB">
  <data key="d0">-23.041389</data>
  <data key="d1">-54.185</data>
  <data key="d2">Ariosto da Riva</data>
</node>
<node id="SNPQ">
  <data key="d0">-8.3741667</data>
  <data key="d1">-36.637778</data>
  <data key="d2">Pesqueira</data>
</node>
<node id="SBNV">
  <data key="d0">-16.625556</data>
  <data key="d1">-49.349444</data>
  <data key="d2">Aeródromo Nacional de Aviação</data>
</node>
<node id="SDTB">
  <data key="d0">-23.128333</data>
  <data key="d1">-46.574722</data>
  <data key="d2">Atibaia</data>
</node>
<node id="SDAE">
  <data key="d0">-22.583611</data>
  <data key="d1">-47.896111</data>
  <data key="d2">São Pedro</data>
</node>
<node id="SSNP">
  <data key="d0">-28.8025</data>
  <data key="d1">-51.604167</data>
  <data key="d2">Nova Prata</data>
</node>
<node id="SWPG">
  <data key="d0">-11.516944</data>
  <data key="d1">-57.333889</data>
  <data key="d2">Porto dos Gaúchos</data>
</node>
<node id="SNIU">
  <data key="d0">-14.173333</data>
  <data key="d1">-39.684167</data>
  <data key="d2">Ipiaú</data>
</node>
<node id="SDLK">
  <data key="d0">-14.481111</data>
  <data key="d1">-42.264722</data>
  <data key="d2">Caculé</data>
</node>
<node id="SDAG">
  <data key="d0">-22.975278</data>
  <data key="d1">-44.307222</data>
  <data key="d2">Angra Dos Reis</data>
</node>
<node id="SNMA">
  <data key="d0">-1.9966667</data>
  <data key="d1">-54.071389</data>
  <data key="d2">Monte Alegre</data>
</node>
<node id="SNKK">
  <data key="d0">-6.4391667</data>
  <data key="d1">-37.078056</data>
  <data key="d2">Caicó</data>
</node>
<edge source="LEMD" target="SAEZ"/>
<edge source="LEMD" target="SUMU"/>
<edge source="LEMD" target="SGAS"/>
<edge source="LEMD" target="SLVR"/>
<edge source="LEMD" target="SBGR"/>
<edge source="LEMD" target="SPJC"/>
<edge source="LEMD" target="SCEL"/>
<edge source="LEMD" target="OMAA"/>
<edge source="LEMD" target="OMDB"/>
<edge source="LEMD" target="OTHH"/>
<edge source="LEMD" target="SBEG"/>
<edge source="LEMD" target="KMIA"/>
<edge source="LEMD" target="SBGL"/>
<edge source="SAEZ" target="SBGR"/>
<edge source="SAEZ" target="SKBO"/>
<edge source="SAEZ" target="MPTO"/>
<edge source="SAEZ" target="LSZH"/>
<edge source="SAEZ" target="SEQM"/>
<edge source="SAEZ" target="SBKP"/>
<edge source="SAEZ" target="SCEL"/>
<edge source="SAEZ" target="KATL"/>
<edge source="SAEZ" target="EHAM"/>
<edge source="SAEZ" target="OMDB"/>
<edge source="SAEZ" target="KDFW"/>
<edge source="SAEZ" target="DNKN"/>
<edge source="SAEZ" target="LEBL"/>
<edge source="SAEZ" target="KIAH"/>
<edge source="SAEZ" target="LFPG"/>
<edge source="SAEZ" target="SBBR"/>
<edge source="SAEZ" target="SGES"/>
<edge source="SAEZ" target="UUEE"/>
<edge source="SAEZ" target="KMIA"/>
<edge source="SAEZ" target="SBGL"/>
<edge source="SAEZ" target="SBCY"/>
<edge source="SAEZ" target="SUMU"/>
<edge source="SAEZ" target="EDDF"/>
<edge source="SAEZ" target="SBEG"/>
<edge source="SAEZ" target="SGAS"/>
<edge source="SUMU" target="SKBO"/>
<edge source="SUMU" target="MPTO"/>
<edge source="SUMU" target="SBBR"/>
<edge source="SUMU" target="SBGR"/>
<edge source="SUMU" target="SKRG"/>
<edge source="SUMU" target="SBKP"/>
<edge source="SUMU" target="KMIA"/>
<edge source="SGAS" target="SKBO"/>
<edge source="SGAS" target="MPTO"/>
<edge source="SGAS" target="KMIA"/>
<edge source="SGAS" target="SBKP"/>
<edge source="SGAS" target="SBGR"/>
<edge source="SGAS" target="SBPA"/>
<edge source="SGAS" target="SBCF"/>
<edge source="SLVR" target="MPTO"/>
<edge source="SLVR" target="SBGO"/>
<edge source="SLVR" target="SBGR"/>
<edge source="SLVR" target="SVMI"/>
<edge source="SLVR" target="TFFF"/>
<edge source="SLVR" target="KMIA"/>
<edge source="SLVR" target="SYCJ"/>
<edge source="SBGR" target="HAAB"/>
<edge source="SBGR" target="OMAA"/>
<edge source="SBGR" target="GMMN"/>
<edge source="SBGR" target="EBLG"/>
<edge source="SBGR" target="EBBR"/>
<edge source="SBGR" target="SCEL"/>
<edge source="SBGR" target="DNMM"/>
<edge source="SBGR" target="DGAA"/>
<edge source="SBGR" target="SBCF"/>
<edge source="SBGR" target="SBJD"/>
<edge source="SBGR" target="SBVT"/>
<edge source="SBGR" target="MPTO"/>
<edge source="SBGR" target="LSZH"/>
<edge source="SBGR" target="SBPA"/>
<edge source="SBGR" target="SBCT"/>
<edge source="SBGR" target="SBGL"/>
<edge source="SBGR" target="SBFL"/>
<edge source="SBGR" target="SBGO"/>
<edge source="SBGR" target="SBRF"/>
<edge source="SBGR" target="SBBV"/>
<edge source="SBGR" target="SBBR"/>
<edge source="SBGR" target="SBSV"/>
<edge source="SBGR" target="SBCX"/>
<edge source="SBGR" target="SBRJ"/>
<edge source="SBGR" target="SBNF"/>
<edge source="SBGR" target="SBMG"/>
<edge source="SBGR" target="SBFI"/>
<edge source="SBGR" target="SBCA"/>
<edge source="SBGR" target="SBLO"/>
<edge source="SBGR" target="SBCH"/>
<edge source="SBGR" target="SDSC"/>
<edge source="SBGR" target="SPJC"/>
<edge source="SBGR" target="MTPP"/>
<edge source="SBGR" target="SBEG"/>
<edge source="SBGR" target="KMIA"/>
<edge source="SBGR" target="KJFK"/>
<edge source="SBGR" target="KDFW"/>
<edge source="SBGR" target="SBKP"/>
<edge source="SBGR" target="ELLX"/>
<edge source="SBGR" target="LPPT"/>
<edge source="SBGR" target="LPPR"/>
<edge source="SBGR" target="SEQM"/>
<edge source="SBGR" target="SBVC"/>
<edge source="SBGR" target="SBMK"/>
<edge source="SBGR" target="SBCN"/>
<edge source="SBGR" target="SBCY"/>
<edge source="SBGR" target="SBUL"/>
<edge source="SBGR" target="SBSI"/>
<edge source="SBGR" target="SBCG"/>
<edge source="SBGR" target="SBAR"/>
<edge source="SBGR" target="SBMO"/>
<edge source="SBGR" target="SBSG"/>
<edge source="SBGR" target="SBFZ"/>
<edge source="SBGR" target="SBJE"/>
<edge source="SBGR" target="SBJP"/>
<edge source="SBGR" target="SBIL"/>
<edge source="SBGR" target="SBTE"/>
<edge source="SBGR" target="SBPL"/>
<edge source="SBGR" target="SBPS"/>
<edge source="SBGR" target="SBKG"/>
<edge source="SBGR" target="SBJU"/>
<edge source="SBGR" target="SBSL"/>
<edge source="SBGR" target="SBBE"/>
<edge source="SBGR" target="KATL"/>
<edge source="SBGR" target="EHAM"/>
<edge source="SBGR" target="OMDB"/>
<edge source="SBGR" target="SKBO"/>
<edge source="SBGR" target="OTHH"/>
<edge source="SBGR" target="TJSJ"/>
<edge source="SBGR" target="SKRG"/>
<edge source="SBGR" target="FNLU"/>
<edge source="SBGR" target="KIAH"/>
<edge source="SBGR" target="KEWR"/>
<edge source="SBGR" target="SBRB"/>
<edge source="SBGR" target="SBIZ"/>
<edge source="SBGR" target="SBPV"/>
<edge source="SBGR" target="SBSR"/>
<edge source="SBGR" target="KORD"/>
<edge source="SBGR" target="LFPG"/>
<edge source="SBGR" target="SABE"/>
<edge source="SBGR" target="GVAC"/>
<edge source="SBGR" target="SGES"/>
<edge source="SBGR" target="MMMX"/>
<edge source="SBGR" target="LIMC"/>
<edge source="SBGR" target="LIRF"/>
<edge source="SBGR" target="SBPJ"/>
<edge source="SBGR" target="EDDF"/>
<edge source="SBGR" target="MMUN"/>
<edge source="SBGR" target="SBTC"/>
<edge source="SBGR" target="KVCV"/>
<edge source="SBGR" target="SBJV"/>
<edge source="SBGR" target="SBAU"/>
<edge source="SBGR" target="SBDN"/>
<edge source="SBGR" target="CYYZ"/>
<edge source="SBGR" target="LTFM"/>
<edge source="SBGR" target="GOBD"/>
<edge source="SBGR" target="SLCB"/>
<edge source="SBGR" target="EGLL"/>
<edge source="SBGR" target="KLAX"/>
<edge source="SBGR" target="GUCY"/>
<edge source="SBEG" target="SBBR"/>
<edge source="SBEG" target="SBKP"/>
<edge source="SBEG" target="SKRG"/>
<edge source="SBEG" target="KMIA"/>
<edge source="SBEG" target="SKBO"/>
<edge source="SBEG" target="MTPP"/>
<edge source="SBEG" target="SEQM"/>
<edge source="SBEG" target="SBSN"/>
<edge source="SBEG" target="SBFZ"/>
<edge source="SBEG" target="SBBE"/>
<edge source="SBEG" target="SBRB"/>
<edge source="SBEG" target="SBCZ"/>
<edge source="SBEG" target="SBBV"/>
<edge source="SBEG" target="SBRF"/>
<edge source="SBEG" target="SBPV"/>
<edge source="SBEG" target="SBTF"/>
<edge source="SBEG" target="SBTT"/>
<edge source="SBEG" target="SEGU"/>
<edge source="SBEG" target="SBCF"/>
<edge source="SBEG" target="MGGT"/>
<edge source="SBEG" target="SBIH"/>
<edge source="SBEG" target="SBUA"/>
<edge source="SBEG" target="SWCA"/>
<edge source="SBEG" target="SWEI"/>
<edge source="SBEG" target="SWKO"/>
<edge source="SBEG" target="SWPI"/>
<edge source="SBEG" target="KPUC"/>
<edge source="SBEG" target="SBUY"/>
<edge source="SBEG" target="SBTB"/>
<edge source="SBEG" target="SVMI"/>
<edge source="SBEG" target="SBGL"/>
<edge source="SBBR" target="SBKP"/>
<edge source="SBBR" target="MPTO"/>
<edge source="SBBR" target="SBVT"/>
<edge source="SBBR" target="SBRJ"/>
<edge source="SBBR" target="SBGO"/>
<edge source="SBBR" target="LPPT"/>
<edge source="SBBR" target="SBPV"/>
<edge source="SBBR" target="SBBV"/>
<edge source="SBBR" target="SBSP"/>
<edge source="SBBR" target="SBTE"/>
<edge source="SBBR" target="SBCF"/>
<edge source="SBBR" target="SBFZ"/>
<edge source="SBBR" target="SBCY"/>
<edge source="SBBR" target="SBJP"/>
<edge source="SBBR" target="SBSL"/>
<edge source="SBBR" target="SBRF"/>
<edge source="SBBR" target="SBPJ"/>
<edge source="SBBR" target="SBCT"/>
<edge source="SBBR" target="SBSG"/>
<edge source="SBBR" target="SBMQ"/>
<edge source="SBBR" target="SBMA"/>
<edge source="SBBR" target="SBSV"/>
<edge source="SBBR" target="SBFL"/>
<edge source="SBBR" target="SBCJ"/>
<edge source="SBBR" target="SBBE"/>
<edge source="SBBR" target="SBPA"/>
<edge source="SBBR" target="SBMO"/>
<edge source="SBBR" target="SBGL"/>
<edge source="SBBR" target="SBRB"/>
<edge source="SBBR" target="SBCG"/>
<edge source="SBBR" target="SBSN"/>
<edge source="SBBR" target="SBAR"/>
<edge source="SBBR" target="SDSC"/>
<edge source="SBBR" target="SCEL"/>
<edge source="SBBR" target="EHAM"/>
<edge source="SBBR" target="SBUL"/>
<edge source="SBBR" target="SWGN"/>
<edge source="SBBR" target="SNBR"/>
<edge source="SBBR" target="SBSR"/>
<edge source="SBBR" target="SVMI"/>
<edge source="SBKP" target="SBRF"/>
<edge source="SBKP" target="SBGL"/>
<edge source="SBKP" target="SBCF"/>
<edge source="SBKP" target="KMIA"/>
<edge source="SBKP" target="SKBO"/>
<edge source="SBKP" target="SBCT"/>
<edge source="SBKP" target="EHAM"/>
<edge source="SBKP" target="SCEL"/>
<edge source="SBKP" target="SPJC"/>
<edge source="SBKP" target="KMEM"/>
<edge source="SBKP" target="TJBQ"/>
<edge source="SBKP" target="ELLX"/>
<edge source="SBKP" target="SEQM"/>
<edge source="SBKP" target="SBCB"/>
<edge source="SBKP" target="SBSV"/>
<edge source="SBKP" target="SBPA"/>
<edge source="SBKP" target="SBVT"/>
<edge source="SBKP" target="SBFL"/>
<edge source="SBKP" target="OMAA"/>
<edge source="SBKP" target="SBFZ"/>
<edge source="SBKP" target="SKRG"/>
<edge source="SBKP" target="SBRJ"/>
<edge source="SBKP" target="OMDB"/>
<edge source="SBKP" target="SBBE"/>
<edge source="SBKP" target="SBRB"/>
<edge source="SBKP" target="SBJP"/>
<edge source="SBKP" target="SBMO"/>
<edge source="SBKP" target="SBFI"/>
<edge source="SBKP" target="SBPS"/>
<edge source="SBKP" target="SBDB"/>
<edge source="SBKP" target="SBCR"/>
<edge source="SBKP" target="SBCN"/>
<edge source="SBKP" target="SBNF"/>
<edge source="SBKP" target="SBAR"/>
<edge source="SBKP" target="SBDN"/>
<edge source="SBKP" target="SBJV"/>
<edge source="SBKP" target="SBSR"/>
<edge source="SBKP" target="SBMG"/>
<edge source="SBKP" target="SBLO"/>
<edge source="SBKP" target="SBCH"/>
<edge source="SBKP" target="SBRP"/>
<edge source="SBKP" target="SBTE"/>
<edge source="SBKP" target="SBPL"/>
<edge source="SBKP" target="SBCY"/>
<edge source="SBKP" target="SBUL"/>
<edge source="SBKP" target="SBCG"/>
<edge source="SBKP" target="SBZM"/>
<edge source="SBKP" target="SWLC"/>
<edge source="SBKP" target="SBAE"/>
<edge source="SBKP" target="SBML"/>
<edge source="SBKP" target="SBTG"/>
<edge source="SBKP" target="SBGO"/>
<edge source="SBKP" target="SBPB"/>
<edge source="SBKP" target="SBRD"/>
<edge source="SBKP" target="SBAU"/>
<edge source="SBKP" target="SBPJ"/>
<edge source="SBKP" target="SBPV"/>
<edge source="SBKP" target="SBCA"/>
<edge source="SBKP" target="SBJU"/>
<edge source="SBKP" target="SBSG"/>
<edge source="SBKP" target="SBJA"/>
<edge source="SBKP" target="SBCX"/>
<edge source="SBKP" target="SBJE"/>
<edge source="SBKP" target="KFLL"/>
<edge source="SBKP" target="LPPT"/>
<edge source="SBKP" target="SBIL"/>
<edge source="SBKP" target="EBBR"/>
<edge source="SBKP" target="SGES"/>
<edge source="SBKP" target="EDDF"/>
<edge source="SBKP" target="GVAC"/>
<edge source="SBKP" target="SVMI"/>
<edge source="SBRF" target="SBGL"/>
<edge source="SBRF" target="SNRU"/>
<edge source="SBRF" target="SNHS"/>
<edge source="SBRF" target="SBIL"/>
<edge source="SBRF" target="SBCT"/>
<edge source="SBRF" target="LPPT"/>
<edge source="SBRF" target="KMIA"/>
<edge source="SBRF" target="SBRF"/>
<edge source="SBRF" target="SBSV"/>
<edge source="SBRF" target="SBPL"/>
<edge source="SBRF" target="SBSP"/>
<edge source="SBRF" target="SBFZ"/>
<edge source="SBRF" target="SBFN"/>
<edge source="SBRF" target="SBSG"/>
<edge source="SBRF" target="SBVT"/>
<edge source="SBRF" target="SBRP"/>
<edge source="SBRF" target="SBSR"/>
<edge source="SBRF" target="SBPA"/>
<edge source="SBRF" target="SBGO"/>
<edge source="SBRF" target="SBCF"/>
<edge source="SBRF" target="SBSL"/>
<edge source="SBRF" target="SBJP"/>
<edge source="SBRF" target="SBKG"/>
<edge source="SBRF" target="SBBE"/>
<edge source="SBRF" target="SBRJ"/>
<edge source="SBRF" target="SBMO"/>
<edge source="SBRF" target="SBAR"/>
<edge source="SBRF" target="SBTE"/>
<edge source="SBRF" target="SBJU"/>
<edge source="SBRF" target="SBMS"/>
<edge source="SBRF" target="EDDF"/>
<edge source="SBRF" target="TJSJ"/>
<edge source="SBGL" target="SBMO"/>
<edge source="SBGL" target="MPTO"/>
<edge source="SBGL" target="SBVT"/>
<edge source="SBGL" target="SBCT"/>
<edge source="SBGL" target="SBSV"/>
<edge source="SBGL" target="SCEL"/>
<edge source="SBGL" target="KMIA"/>
<edge source="SBGL" target="ELLX"/>
<edge source="SBGL" target="LPPT"/>
<edge source="SBGL" target="LPPR"/>
<edge source="SBGL" target="SBJP"/>
<edge source="SBGL" target="SBAR"/>
<edge source="SBGL" target="SBNF"/>
<edge source="SBGL" target="SBFI"/>
<edge source="SBGL" target="SBCF"/>
<edge source="SBGL" target="SBFL"/>
<edge source="SBGL" target="SBSG"/>
<edge source="SBGL" target="SBPA"/>
<edge source="SBGL" target="SBFZ"/>
<edge source="SBGL" target="SBGO"/>
<edge source="SBGL" target="SBCY"/>
<edge source="SBGL" target="EHAM"/>
<edge source="SBGL" target="SBCX"/>
<edge source="SBGL" target="SKBO"/>
<edge source="SBGL" target="KIAH"/>
<edge source="SBGL" target="LFPG"/>
<edge source="SBGL" target="SABE"/>
<edge source="SBGL" target="SDSC"/>
<edge source="SBGL" target="EDDF"/>
<edge source="SBGL" target="LSZH"/>
<edge source="SPJC" target="GOBD"/>
<edge source="SPJC" target="SEQM"/>
<edge source="SPJC" target="SDSC"/>
<edge source="SPJC" target="SKRG"/>
<edge source="SPJC" target="KATL"/>
<edge source="SPJC" target="SKBO"/>
<edge source="SPJC" target="KLAX"/>
<edge source="SPJC" target="SCEL"/>
<edge source="SPJC" target="KORD"/>
<edge source="SBCF" target="SBJD"/>
<edge source="SBCF" target="MPTO"/>
<edge source="SBCF" target="SBCT"/>
<edge source="SBCF" target="SBSV"/>
<edge source="SBCF" target="SBSP"/>
<edge source="SBCF" target="LPPT"/>
<edge source="SBCF" target="KMIA"/>
<edge source="SBCF" target="SBPS"/>
<edge source="SBCF" target="SBSG"/>
<edge source="SBCF" target="SBMO"/>
<edge source="SBCF" target="SBTC"/>
<edge source="SBCF" target="SBGO"/>
<edge source="SBCF" target="SBMA"/>
<edge source="SBCF" target="SBMK"/>
<edge source="SBCF" target="SBVT"/>
<edge source="SBCF" target="SBRJ"/>
<edge source="SBCF" target="SBVC"/>
<edge source="SBCF" target="SBUL"/>
<edge source="SBCF" target="SBGV"/>
<edge source="SBCF" target="SBUR"/>
<edge source="SBCF" target="SBPA"/>
<edge source="SBCF" target="SBCJ"/>
<edge source="SBCF" target="SBFZ"/>
<edge source="SBCF" target="SNBR"/>
<edge source="SBCF" target="SBCY"/>
<edge source="SBCF" target="SNTF"/>
<edge source="SBCF" target="SBSL"/>
<edge source="SBCF" target="SBBE"/>
<edge source="SBCF" target="SBJE"/>
<edge source="SBCF" target="SBIL"/>
<edge source="SBCF" target="SBAR"/>
<edge source="SBCF" target="SBFI"/>
<edge source="SBCF" target="KVCV"/>
<edge source="SBCF" target="KJFK"/>
<edge source="SBCF" target="KBOS"/>
<edge source="SBCF" target="SYCJ"/>
<edge source="SCEL" target="HAAB"/>
<edge source="SCEL" target="DNMM"/>
<edge source="SCEL" target="SKBO"/>
<edge source="SCEL" target="SEQM"/>
<edge source="SCEL" target="KMIA"/>
<edge source="SCEL" target="MMMX"/>
<edge source="SCEL" target="SDSC"/>
<edge source="SCEL" target="KATL"/>
<edge source="SCEL" target="EHAM"/>
<edge source="SCEL" target="KDFW"/>
<edge source="SCEL" target="LEBL"/>
<edge source="SCEL" target="LFPG"/>
<edge source="SCEL" target="SBFI"/>
<edge source="SCEL" target="DGAA"/>
<edge source="HAAB" target="DNMM"/>
<edge source="HAAB" target="KPVG"/>
<edge source="HAAB" target="DGAA"/>
<edge source="GOBD" target="LTBA"/>
<edge source="SBMO" target="SBSP"/>
<edge source="SBMO" target="SBSV"/>
<edge source="SBMO" target="SBRP"/>
<edge source="OMAA" target="VOHS"/>
<edge source="OMAA" target="GMMN"/>
<edge source="OMAA" target="VHHH"/>
<edge source="EBLG" target="OTHH"/>
<edge source="DNMM" target="KPVG"/>
<edge source="DNMM" target="OTHH"/>
<edge source="SKBO" target="KMIA"/>
<edge source="SKBO" target="SDSC"/>
<edge source="SKBO" target="SBCY"/>
<edge source="SKBO" target="SBFL"/>
<edge source="SKBO" target="SGES"/>
<edge source="SKBO" target="SBCT"/>
<edge source="SKBO" target="SVMI"/>
<edge source="KMIA" target="SBCT"/>
<edge source="KMIA" target="EHAM"/>
<edge source="KMIA" target="SEQM"/>
<edge source="KMIA" target="SBCB"/>
<edge source="KMIA" target="SBSV"/>
<edge source="KMIA" target="SKRG"/>
<edge source="KMIA" target="SBVT"/>
<edge source="KMIA" target="SBFL"/>
<edge source="KMIA" target="SBPA"/>
<edge source="KMIA" target="SBFZ"/>
<edge source="KMIA" target="TJSJ"/>
<edge source="KMIA" target="PANC"/>
<edge source="KMIA" target="SGES"/>
<edge source="KMIA" target="KORD"/>
<edge source="KMIA" target="LTFM"/>
<edge source="KMIA" target="LTBA"/>
<edge source="KMIA" target="SYCJ"/>
<edge source="DGAA" target="UCFM"/>
<edge source="SBVT" target="SBVT"/>
<edge source="SBVT" target="SBPA"/>
<edge source="SBVT" target="SBJD"/>
<edge source="SBVT" target="SBSV"/>
<edge source="SBVT" target="SBRJ"/>
<edge source="SBVT" target="SBSP"/>
<edge source="SBBE" target="SBMD"/>
<edge source="SBBE" target="SNVS"/>
<edge source="SBBE" target="SBSN"/>
<edge source="SBBE" target="SNYA"/>
<edge source="SBBE" target="SBPJ"/>
<edge source="SBBE" target="SBMQ"/>
<edge source="SBBE" target="SBFZ"/>
<edge source="SBBE" target="SBMA"/>
<edge source="SBBE" target="SBHT"/>
<edge source="SBBE" target="SBIZ"/>
<edge source="SBBE" target="SBCJ"/>
<edge source="SBBE" target="SBBV"/>
<edge source="SBBE" target="SBSL"/>
<edge source="SBBE" target="SMJP"/>
<edge source="SBMD" target="SNYA"/>
<edge source="SWTS" target="SBCY"/>
<edge source="SWTS" target="SWJN"/>
<edge source="SWTS" target="SSOU"/>
<edge source="SBCY" target="SBBW"/>
<edge source="SBCY" target="SWHP"/>
<edge source="SBCY" target="SWJN"/>
<edge source="SBCY" target="SLLP"/>
<edge source="SBCY" target="SSOU"/>
<edge source="SBCY" target="SBPJ"/>
<edge source="SBCY" target="SBGO"/>
<edge source="SBCY" target="SBJD"/>
<edge source="SBCY" target="SBPV"/>
<edge source="SBCY" target="SBCG"/>
<edge source="SBCY" target="SBSI"/>
<edge source="SBCY" target="SBRJ"/>
<edge source="SBCY" target="SBAT"/>
<edge source="SBCY" target="SBVH"/>
<edge source="SBCY" target="SEQM"/>
<edge source="SWHP" target="SWFX"/>
<edge source="SWHP" target="SJHG"/>
<edge source="SWFX" target="SJHG"/>
<edge source="SWJN" target="SSOU"/>
<edge source="SBJD" target="SBIL"/>
<edge source="SBJD" target="SBJD"/>
<edge source="SBJD" target="SBSJ"/>
<edge source="SBJD" target="SBGO"/>
<edge source="SBIL" target="SBSV"/>
<edge source="SBIL" target="SBRJ"/>
<edge source="SBCT" target="SBFL"/>
<edge source="SBCT" target="SBPA"/>
<edge source="SBCT" target="SBBV"/>
<edge source="SBCT" target="SBCX"/>
<edge source="SBCT" target="SBSV"/>
<edge source="SBCT" target="SBSP"/>
<edge source="SBCT" target="SBFI"/>
<edge source="SBCT" target="SBCA"/>
<edge source="SBCT" target="SBRJ"/>
<edge source="SBCT" target="SBMG"/>
<edge source="SBCT" target="SBLO"/>
<edge source="SBCT" target="SBCH"/>
<edge source="SBCT" target="EDDF"/>
<edge source="SACO" target="MPTO"/>
<edge source="MPTO" target="SBPA"/>
<edge source="MPTO" target="EHBK"/>
<edge source="MPTO" target="SEQM"/>
<edge source="SBPA" target="SBBV"/>
<edge source="SBPA" target="SBCG"/>
<edge source="SBPA" target="SBSP"/>
<edge source="SBPA" target="SBCB"/>
<edge source="SBPA" target="SBFL"/>
<edge source="SBPA" target="SBSV"/>
<edge source="SBPA" target="SBRJ"/>
<edge source="SBPA" target="SBFZ"/>
<edge source="SBPA" target="SBPK"/>
<edge source="SBPA" target="SBSM"/>
<edge source="SBPA" target="SBNM"/>
<edge source="SBPA" target="SBUG"/>
<edge source="SBPA" target="SBCH"/>
<edge source="SBPA" target="SEQM"/>
<edge source="SBFL" target="SBSP"/>
<edge source="SBFL" target="SBCH"/>
<edge source="SBFL" target="SBRJ"/>
<edge source="SBGO" target="SBCG"/>
<edge source="SBGO" target="SBSP"/>
<edge source="SBGO" target="SBSV"/>
<edge source="SBGO" target="SBPS"/>
<edge source="SBGO" target="SBRJ"/>
<edge source="SBGO" target="SBPJ"/>
<edge source="SBGO" target="SBFZ"/>
<edge source="SBGO" target="SBRP"/>
<edge source="SBBV" target="SBCG"/>
<edge source="SBBV" target="SBFZ"/>
<edge source="SBBV" target="MMMX"/>
<edge source="SBCG" target="SBSP"/>
<edge source="SBSV" target="SBFZ"/>
<edge source="SBSV" target="LPPT"/>
<edge source="SBSV" target="SBRJ"/>
<edge source="SBSV" target="SBSP"/>
<edge source="SBSV" target="SBSG"/>
<edge source="SBSV" target="SBTE"/>
<edge source="SBSV" target="SBSL"/>
<edge source="SBSV" target="SBPJ"/>
<edge source="SBSV" target="SBJP"/>
<edge source="SBSV" target="SBPS"/>
<edge source="SBSV" target="SBVC"/>
<edge source="SBSV" target="SNBR"/>
<edge source="SBSV" target="SBAR"/>
<edge source="SBFZ" target="LPPT"/>
<edge source="SBFZ" target="SBSL"/>
<edge source="SBFZ" target="SBSP"/>
<edge source="SBFZ" target="SDSC"/>
<edge source="SDSC" target="SBRJ"/>
<edge source="SDSC" target="SBSP"/>
<edge source="EHAM" target="EDDF"/>
<edge source="EHAM" target="ZBAA"/>
<edge source="SEQM" target="TJBQ"/>
<edge source="SEQM" target="OMDB"/>
<edge source="SBSP" target="SBRJ"/>
<edge source="SBSP" target="SBNF"/>
<edge source="SBSP" target="SBPS"/>
<edge source="SBSP" target="SBSG"/>
<edge source="SBSP" target="SBTC"/>
<edge source="SBSP" target="SBJA"/>
<edge source="SBSP" target="SBJV"/>
<edge source="SBSP" target="SBRP"/>
<edge source="SBSP" target="SBCH"/>
<edge source="SBRJ" target="SBPS"/>
<edge source="SBRJ" target="SBCP"/>
<edge source="SBRJ" target="SBME"/>
<edge source="SBRJ" target="SBUL"/>
<edge source="SBRJ" target="SBRP"/>
<edge source="MMMX" target="SLCB"/>
<edge source="MMMX" target="SVMI"/>
<edge source="KDFW" target="ELLX"/>
<edge source="KMEM" target="TJBQ"/>
<edge source="ELLX" target="OTHH"/>
<edge source="SBPJ" target="SBPL"/>
<edge source="SBUL" target="SBPS"/>
<edge source="SBSL" target="SBIZ"/>
<edge source="SBTE" target="SBPB"/>
<edge source="SBPS" target="SBRP"/>
<edge source="SBPS" target="SBSR"/>
<edge source="SBPS" target="SBAE"/>
<edge source="SBPS" target="SBDN"/>
<edge source="SBRB" target="SBCZ"/>
<edge source="OMDB" target="OTHH"/>
<edge source="OTHH" target="EHBK"/>
<edge source="TJSJ" target="KAEX"/>
<edge source="TJSJ" target="SYCJ"/>
<edge source="SBAE" target="SBDN"/>
<edge source="SBDB" target="SBCR"/>
<edge source="SBTF" target="SWEI"/>
<edge source="SBCP" target="SBME"/>
<edge source="SBIH" target="SWPI"/>
<edge source="SWCA" target="SWKO"/>
<edge source="SWCA" target="KPUC"/>
<edge source="SWCA" target="SBUY"/>
<edge source="SWKO" target="SWLB"/>
<edge source="FNLU" target="MUHA"/>
<edge source="KEWR" target="FAOR"/>
<edge source="LIRF" target="SANU"/>
<edge source="EDDF" target="GVAC"/>
<edge source="PANC" target="RKSI"/>
<edge source="RKSI" target="KLAX"/>
<edge source="SCFA" target="SKCL"/>
<edge source="VMMC" target="VCBI"/>
<edge source="VCBI" target="OEJN"/>
<edge source="OEJN" target="GUCY"/>
</graph></graphml>